pk[0]: 0086
pk[1]: 009b
pk[2]: 0010
pk[3]: 0014
pk[4]: 0008
pk[5]: 0070
pk[6]: 0029
pk[7]: 0092
pk[8]: 0024
pk[9]: 0083
pk[10]: 0069
pk[11]: 006a
pk[12]: 003c
pk[13]: 00b1
pk[14]: 0044
pk[15]: 00df
pk[16]: 0085
pk[17]: 0053
pk[18]: 0097
pk[19]: 00b2
pk[20]: 00bc
pk[21]: 00b3
pk[22]: 00f4
pk[23]: 0042
pk[24]: 004f
pk[25]: 00f3
pk[26]: 0054
pk[27]: 00bd
pk[28]: 009a
pk[29]: 005d
pk[30]: 002b
pk[31]: 0055
pk[32]: 0092
pk[33]: 009c
pk[34]: 0037
pk[35]: 00a2
pk[36]: 00bd
pk[37]: 00f0
pk[38]: 0005
pk[39]: 0066
pk[40]: 00d9
pk[41]: 00a1
pk[42]: 00d7
pk[43]: 0000
pk[44]: 0004
pk[45]: 00de
pk[46]: 002a
pk[47]: 00bd
pk[48]: 0048
pk[49]: 0071
pk[50]: 00ae
pk[51]: 00a7
pk[52]: 0012
pk[53]: 00aa
pk[54]: 0067
pk[55]: 0010
pk[56]: 004a
pk[57]: 0039
pk[58]: 0058
pk[59]: 000e
pk[60]: 005d
pk[61]: 00ec
pk[62]: 0045
pk[63]: 00bd
pk[64]: 0095
pk[65]: 0024
pk[66]: 0009
pk[67]: 0065
pk[68]: 00cc
pk[69]: 0059
pk[70]: 0012
pk[71]: 00b7
pk[72]: 001d
pk[73]: 00e1
pk[74]: 0070
pk[75]: 0018
pk[76]: 0057
pk[77]: 0008
pk[78]: 009c
pk[79]: 0001
pk[80]: 0000
pk[81]: 0047
pk[82]: 00d5
pk[83]: 00cd
pk[84]: 000a
pk[85]: 00ca
pk[86]: 00c5
pk[87]: 0048
pk[88]: 0022
pk[89]: 007b
pk[90]: 00f7
pk[91]: 0068
pk[92]: 0003
pk[93]: 0079
pk[94]: 005a
pk[95]: 00cd
pk[96]: 00ba
pk[97]: 0083
pk[98]: 004a
pk[99]: 0007
pk[100]: 00fc
pk[101]: 0025
pk[102]: 00f8
pk[103]: 007b
pk[104]: 001e
pk[105]: 0081
pk[106]: 00e0
pk[107]: 00c0
pk[108]: 0094
pk[109]: 00b9
pk[110]: 0031
pk[111]: 0040
pk[112]: 00b2
pk[113]: 00a6
pk[114]: 003d
pk[115]: 003a
pk[116]: 0079
pk[117]: 00ba
pk[118]: 00a8
pk[119]: 0054
pk[120]: 00d4
pk[121]: 0022
pk[122]: 0080
pk[123]: 00a5
pk[124]: 00aa
pk[125]: 0023
pk[126]: 003a
pk[127]: 0085
pk[128]: 0000
pk[129]: 00fa
pk[130]: 00fa
pk[131]: 008a
pk[132]: 00a8
pk[133]: 00b5
pk[134]: 004a
pk[135]: 0019
pk[136]: 0001
pk[137]: 0061
pk[138]: 00de
pk[139]: 009a
pk[140]: 001e
pk[141]: 003d
pk[142]: 00b4
pk[143]: 00c8
pk[144]: 009e
pk[145]: 0021
pk[146]: 0012
pk[147]: 00f9
pk[148]: 006b
pk[149]: 00ca
pk[150]: 00e3
pk[151]: 00d8
pk[152]: 00bd
pk[153]: 00a8
pk[154]: 0028
pk[155]: 00b0
pk[156]: 00a6
pk[157]: 0043
pk[158]: 00aa
pk[159]: 002d
pk[160]: 008b
pk[161]: 0058
pk[162]: 00bb
pk[163]: 0070
pk[164]: 00c8
pk[165]: 0067
pk[166]: 00b9
pk[167]: 00bd
pk[168]: 00db
pk[169]: 0056
pk[170]: 0088
pk[171]: 0026
pk[172]: 0031
pk[173]: 0042
pk[174]: 00e7
pk[175]: 00b2
pk[176]: 006d
pk[177]: 009d
pk[178]: 003c
pk[179]: 002a
pk[180]: 0087
pk[181]: 0090
pk[182]: 00a5
pk[183]: 0043
pk[184]: 00f2
pk[185]: 001b
pk[186]: 0063
pk[187]: 0059
pk[188]: 007a
pk[189]: 00b8
pk[190]: 009a
pk[191]: 0027
pk[192]: 009d
pk[193]: 00e9
pk[194]: 0070
pk[195]: 00c0
pk[196]: 00cc
pk[197]: 000f
pk[198]: 00ff
pk[199]: 0025
pk[200]: 002d
pk[201]: 000c
pk[202]: 0005
pk[203]: 00a2
pk[204]: 004a
pk[205]: 00a9
pk[206]: 0091
pk[207]: 006e
pk[208]: 00cc
pk[209]: 00cd
pk[210]: 006b
pk[211]: 0015
pk[212]: 0093
pk[213]: 00b8
pk[214]: 0043
pk[215]: 006f
pk[216]: 00f5
pk[217]: 0055
pk[218]: 0011
pk[219]: 0087
pk[220]: 00f8
pk[221]: 00b7
pk[222]: 0094
pk[223]: 0026
pk[224]: 0037
pk[225]: 005c
pk[226]: 005a
pk[227]: 00b0
pk[228]: 0084
pk[229]: 0045
pk[230]: 0005
pk[231]: 0048
pk[232]: 00e3
pk[233]: 0078
pk[234]: 001b
pk[235]: 0071
pk[236]: 0029
pk[237]: 0056
pk[238]: 00fb
pk[239]: 0029
pk[240]: 004b
pk[241]: 00e9
pk[242]: 0008
pk[243]: 0023
pk[244]: 00a2
pk[245]: 00cc
pk[246]: 0085
pk[247]: 0045
pk[248]: 00b6
pk[249]: 002c
pk[250]: 002c
pk[251]: 0073
pk[252]: 004a
pk[253]: 0080
pk[254]: 0046
pk[255]: 00d0
pk[256]: 0010
pk[257]: 00ba
pk[258]: 00b6
pk[259]: 00a6
pk[260]: 0055
pk[261]: 0044
pk[262]: 00e5
pk[263]: 0008
pk[264]: 008c
pk[265]: 0006
pk[266]: 00bc
pk[267]: 00fc
pk[268]: 0066
pk[269]: 00c4
pk[270]: 007f
pk[271]: 00f7
pk[272]: 003a
pk[273]: 001a
pk[274]: 0003
pk[275]: 00a4
pk[276]: 009f
pk[277]: 0093
pk[278]: 003b
pk[279]: 00eb
pk[280]: 0086
pk[281]: 00b4
pk[282]: 006a
pk[283]: 0081
pk[284]: 0048
pk[285]: 00b3
pk[286]: 0056
pk[287]: 000c
pk[288]: 00fe
pk[289]: 0098
pk[290]: 0061
pk[291]: 000c
pk[292]: 009b
pk[293]: 0086
pk[294]: 00e6
pk[295]: 0052
pk[296]: 0051
pk[297]: 00bc
pk[298]: 00ab
pk[299]: 0028
pk[300]: 00cc
pk[301]: 00c7
pk[302]: 002b
pk[303]: 0088
pk[304]: 001a
pk[305]: 00ce
pk[306]: 00d8
pk[307]: 0091
pk[308]: 003f
pk[309]: 00db
pk[310]: 0001
pk[311]: 0065
pk[312]: 000e
pk[313]: 0004
pk[314]: 0062
pk[315]: 0000
pk[316]: 0031
pk[317]: 008f
pk[318]: 0017
pk[319]: 00b6
pk[320]: 0065
pk[321]: 0038
pk[322]: 007a
pk[323]: 001e
pk[324]: 00f2
pk[325]: 00c2
pk[326]: 00bb
pk[327]: 00e5
pk[328]: 0068
pk[329]: 004e
pk[330]: 0012
pk[331]: 00c2
pk[332]: 00c9
pk[333]: 0024
pk[334]: 0065
pk[335]: 0021
pk[336]: 0023
pk[337]: 0079
pk[338]: 0063
pk[339]: 00a4
pk[340]: 0010
pk[341]: 002b
pk[342]: 0072
pk[343]: 00b9
pk[344]: 001f
pk[345]: 007e
pk[346]: 0058
pk[347]: 0020
pk[348]: 00d7
pk[349]: 00cc
pk[350]: 006a
pk[351]: 001f
pk[352]: 00c5
pk[353]: 00cb
pk[354]: 0031
pk[355]: 0074
pk[356]: 0008
pk[357]: 0022
pk[358]: 0061
pk[359]: 0028
pk[360]: 0030
pk[361]: 0044
pk[362]: 0079
pk[363]: 0038
pk[364]: 0070
pk[365]: 00b1
pk[366]: 00a5
pk[367]: 00d0
pk[368]: 00c8
pk[369]: 00c8
pk[370]: 00ac
pk[371]: 0062
pk[372]: 008b
pk[373]: 00a9
pk[374]: 0099
pk[375]: 0074
pk[376]: 00a0
pk[377]: 0078
pk[378]: 007e
pk[379]: 003b
pk[380]: 00b5
pk[381]: 00bc
pk[382]: 00d6
pk[383]: 00c7
pk[384]: 00b1
pk[385]: 0054
pk[386]: 00a3
pk[387]: 007b
pk[388]: 00ec
pk[389]: 009c
pk[390]: 0071
pk[391]: 0037
pk[392]: 009b
pk[393]: 0086
pk[394]: 0059
pk[395]: 001e
pk[396]: 00e3
pk[397]: 0049
pk[398]: 00ad
pk[399]: 006d
pk[400]: 0087
pk[401]: 0071
pk[402]: 00b4
pk[403]: 0006
pk[404]: 0029
pk[405]: 00b6
pk[406]: 00d5
pk[407]: 000e
pk[408]: 00ff
pk[409]: 0074
pk[410]: 0016
pk[411]: 00ea
pk[412]: 0000
pk[413]: 00d0
pk[414]: 00e8
pk[415]: 00e8
pk[416]: 0060
pk[417]: 00a1
pk[418]: 00a6
pk[419]: 0011
pk[420]: 0002
pk[421]: 0059
pk[422]: 0098
pk[423]: 0097
pk[424]: 0084
pk[425]: 0051
pk[426]: 00f6
pk[427]: 0067
pk[428]: 0000
pk[429]: 0062
pk[430]: 00fc
pk[431]: 004f
pk[432]: 0047
pk[433]: 0049
pk[434]: 00b2
pk[435]: 00b4
pk[436]: 0034
pk[437]: 009c
pk[438]: 0052
pk[439]: 00b4
pk[440]: 003b
pk[441]: 003a
pk[442]: 0066
pk[443]: 003a
pk[444]: 0024
pk[445]: 00e2
pk[446]: 004d
pk[447]: 008b
pk[448]: 0090
pk[449]: 0010
pk[450]: 005b
pk[451]: 0007
pk[452]: 00b5
pk[453]: 0047
pk[454]: 0091
pk[455]: 009f
pk[456]: 00a2
pk[457]: 00a0
pk[458]: 001f
pk[459]: 0080
pk[460]: 00b7
pk[461]: 00b2
pk[462]: 006d
pk[463]: 00c0
pk[464]: 007d
pk[465]: 000c
pk[466]: 0034
pk[467]: 0082
pk[468]: 00ec
pk[469]: 008b
pk[470]: 00ce
pk[471]: 00bd
pk[472]: 0065
pk[473]: 0022
pk[474]: 00b2
pk[475]: 0045
pk[476]: 0029
pk[477]: 0049
pk[478]: 00cb
pk[479]: 00af
pk[480]: 0057
pk[481]: 0045
pk[482]: 0060
pk[483]: 0030
pk[484]: 0027
pk[485]: 003c
pk[486]: 00be
pk[487]: 00c5
pk[488]: 003f
pk[489]: 007a
pk[490]: 0049
pk[491]: 00a8
pk[492]: 00ec
pk[493]: 005a
pk[494]: 0075
pk[495]: 007c
pk[496]: 00b1
pk[497]: 00b6
pk[498]: 0043
pk[499]: 0085
pk[500]: 00bd
pk[501]: 0032
pk[502]: 00b9
pk[503]: 0030
pk[504]: 00a3
pk[505]: 008b
pk[506]: 0069
pk[507]: 004e
pk[508]: 00e7
pk[509]: 0015
pk[510]: 0085
pk[511]: 00f9
pk[512]: 0095
pk[513]: 004b
pk[514]: 00f2
pk[515]: 0072
pk[516]: 0015
pk[517]: 002a
pk[518]: 0085
pk[519]: 00cc
pk[520]: 0039
pk[521]: 0089
pk[522]: 0059
pk[523]: 0022
pk[524]: 001d
pk[525]: 0074
pk[526]: 00b5
pk[527]: 0089
pk[528]: 00d6
pk[529]: 0056
pk[530]: 0085
pk[531]: 0017
pk[532]: 00b6
pk[533]: 0004
pk[534]: 00cd
pk[535]: 00b7
pk[536]: 00b1
pk[537]: 00b0
pk[538]: 00f8
pk[539]: 00b1
pk[540]: 0008
pk[541]: 0077
pk[542]: 0028
pk[543]: 0018
pk[544]: 007b
pk[545]: 0084
pk[546]: 0009
pk[547]: 00a0
pk[548]: 0078
pk[549]: 0056
pk[550]: 00b3
pk[551]: 002a
pk[552]: 0037
pk[553]: 00ec
pk[554]: 009d
pk[555]: 0020
pk[556]: 00c5
pk[557]: 002e
pk[558]: 0081
pk[559]: 006c
pk[560]: 002d
pk[561]: 005f
pk[562]: 00f7
pk[563]: 000a
pk[564]: 0093
pk[565]: 00e6
pk[566]: 00ba
pk[567]: 00d1
pk[568]: 006a
pk[569]: 006c
pk[570]: 00f0
pk[571]: 00da
pk[572]: 004c
pk[573]: 0016
pk[574]: 00c1
pk[575]: 007e
pk[576]: 006a
pk[577]: 0056
pk[578]: 008b
pk[579]: 0033
pk[580]: 0037
pk[581]: 0088
pk[582]: 00f0
pk[583]: 001a
pk[584]: 001f
pk[585]: 00fa
pk[586]: 0098
pk[587]: 002f
pk[588]: 00e8
pk[589]: 00a9
pk[590]: 0094
pk[591]: 006d
pk[592]: 0085
pk[593]: 000b
pk[594]: 00ff
pk[595]: 0005
pk[596]: 004e
pk[597]: 000e
pk[598]: 009b
pk[599]: 000c
pk[600]: 0055
pk[601]: 00a5
pk[602]: 003d
pk[603]: 0079
pk[604]: 0025
pk[605]: 000a
pk[606]: 0044
pk[607]: 0034
pk[608]: 0011
pk[609]: 009f
pk[610]: 00a2
pk[611]: 008b
pk[612]: 0006
pk[613]: 0028
pk[614]: 001f
pk[615]: 0055
pk[616]: 0095
pk[617]: 0044
pk[618]: 0082
pk[619]: 00ab
pk[620]: 0034
pk[621]: 0079
pk[622]: 00b4
pk[623]: 005c
pk[624]: 00ee
pk[625]: 0082
pk[626]: 0026
pk[627]: 00f5
pk[628]: 00d6
pk[629]: 0059
pk[630]: 0038
pk[631]: 0021
pk[632]: 0049
pk[633]: 0050
pk[634]: 00e4
pk[635]: 0054
pk[636]: 0011
pk[637]: 0029
pk[638]: 002d
pk[639]: 008a
pk[640]: 0009
pk[641]: 00bf
pk[642]: 00e5
pk[643]: 009c
pk[644]: 0003
pk[645]: 00d3
pk[646]: 0002
pk[647]: 003a
pk[648]: 00be
pk[649]: 0003
pk[650]: 0018
pk[651]: 00f9
pk[652]: 00ea
pk[653]: 0018
pk[654]: 007f
pk[655]: 0030
pk[656]: 0089
pk[657]: 0049
pk[658]: 00e2
pk[659]: 00c2
pk[660]: 0078
pk[661]: 00b9
pk[662]: 0006
pk[663]: 00ca
pk[664]: 0029
pk[665]: 00ce
pk[666]: 004b
pk[667]: 0018
pk[668]: 006c
pk[669]: 004b
pk[670]: 0005
pk[671]: 0042
pk[672]: 00cf
pk[673]: 0076
pk[674]: 003a
pk[675]: 00ed
pk[676]: 0075
pk[677]: 0057
pk[678]: 00e1
pk[679]: 00d3
pk[680]: 0024
pk[681]: 00c6
pk[682]: 00d5
pk[683]: 0041
pk[684]: 00d6
pk[685]: 0079
pk[686]: 009a
pk[687]: 002a
pk[688]: 00e4
pk[689]: 0016
pk[690]: 00c1
pk[691]: 0019
pk[692]: 00a6
pk[693]: 00a6
pk[694]: 007a
pk[695]: 0006
pk[696]: 00f9
pk[697]: 0065
pk[698]: 0045
pk[699]: 00f3
pk[700]: 00b8
pk[701]: 0018
pk[702]: 00b8
pk[703]: 0052
pk[704]: 0076
pk[705]: 000d
pk[706]: 0085
pk[707]: 000b
pk[708]: 009a
pk[709]: 0010
pk[710]: 0065
pk[711]: 0000
pk[712]: 000b
pk[713]: 0064
pk[714]: 0099
pk[715]: 00f9
pk[716]: 008e
pk[717]: 004c
pk[718]: 00c8
pk[719]: 00b1
pk[720]: 0075
pk[721]: 006c
pk[722]: 004b
pk[723]: 00df
pk[724]: 0029
pk[725]: 00b6
pk[726]: 00bf
pk[727]: 0083
pk[728]: 003a
pk[729]: 00df
pk[730]: 00d0
pk[731]: 005e
pk[732]: 0030
pk[733]: 0085
pk[734]: 0081
pk[735]: 0011
pk[736]: 0078
pk[737]: 006b
pk[738]: 005b
pk[739]: 0039
pk[740]: 0074
pk[741]: 00f7
pk[742]: 00c3
pk[743]: 005f
pk[744]: 0042
pk[745]: 009a
pk[746]: 000e
pk[747]: 0002
pk[748]: 00a6
pk[749]: 0043
pk[750]: 0082
pk[751]: 00aa
pk[752]: 008b
pk[753]: 00da
pk[754]: 0007
pk[755]: 009a
pk[756]: 00b4
pk[757]: 00ea
pk[758]: 00c0
pk[759]: 00f8
pk[760]: 00c9
pk[761]: 0039
pk[762]: 00dc
pk[763]: 0062
pk[764]: 0038
pk[765]: 0039
pk[766]: 009c
pk[767]: 007a
pk[768]: 00c6
pk[769]: 00ba
pk[770]: 0027
pk[771]: 0059
pk[772]: 0014
pk[773]: 0079
pk[774]: 0003
pk[775]: 0004
pk[776]: 008a
pk[777]: 0035
pk[778]: 0070
pk[779]: 008e
pk[780]: 00de
pk[781]: 004a
pk[782]: 0084
pk[783]: 00d2
pk[784]: 0053
pk[785]: 00c0
pk[786]: 001d
pk[787]: 00a7
pk[788]: 0075
pk[789]: 007b
pk[790]: 0078
pk[791]: 006c
pk[792]: 000d
pk[793]: 00eb
pk[794]: 0080
pk[795]: 00dd
pk[796]: 0092
pk[797]: 0060
pk[798]: 00ec
pk[799]: 0026
pk[800]: 0070
pk[801]: 0087
pk[802]: 0042
pk[803]: 0053
pk[804]: 0064
pk[805]: 009c
pk[806]: 002c
pk[807]: 00f3
pk[808]: 0010
pk[809]: 005a
pk[810]: 0052
pk[811]: 00fa
pk[812]: 00ba
pk[813]: 0007
pk[814]: 0087
pk[815]: 004e
pk[816]: 00a6
pk[817]: 0041
pk[818]: 009c
pk[819]: 00ef
pk[820]: 0092
pk[821]: 0089
pk[822]: 00c1
pk[823]: 007c
pk[824]: 0069
pk[825]: 008a
pk[826]: 00b4
pk[827]: 0070
pk[828]: 0058
pk[829]: 0001
pk[830]: 00b8
pk[831]: 009e
pk[832]: 00a5
pk[833]: 00a4
pk[834]: 000f
pk[835]: 00c1
pk[836]: 008c
pk[837]: 000c
pk[838]: 004a
pk[839]: 009a
pk[840]: 00aa
pk[841]: 0005
pk[842]: 007b
pk[843]: 0060
pk[844]: 0052
pk[845]: 0013
pk[846]: 003f
pk[847]: 0061
pk[848]: 0044
pk[849]: 00d3
pk[850]: 0019
pk[851]: 00ba
pk[852]: 00bb
pk[853]: 00f2
pk[854]: 000e
pk[855]: 0076
pk[856]: 0088
pk[857]: 0041
pk[858]: 00fd
pk[859]: 0025
pk[860]: 00c5
pk[861]: 0051
pk[862]: 0069
pk[863]: 0004
pk[864]: 00a4
pk[865]: 0009
pk[866]: 000b
pk[867]: 00bb
pk[868]: 008b
pk[869]: 00ad
pk[870]: 001c
pk[871]: 001c
pk[872]: 0053
pk[873]: 0002
pk[874]: 0096
pk[875]: 00cd
pk[876]: 00df
pk[877]: 0003
pk[878]: 0075
pk[879]: 007b
pk[880]: 0033
pk[881]: 004d
pk[882]: 00e3
pk[883]: 0094
pk[884]: 0092
pk[885]: 00a5
pk[886]: 0045
pk[887]: 007c
pk[888]: 00ec
pk[889]: 00d4
pk[890]: 00c0
pk[891]: 000f
pk[892]: 0018
pk[893]: 0072
pk[894]: 005d
pk[895]: 00c4
pk[896]: 008a
pk[897]: 00b4
pk[898]: 00e8
pk[899]: 0030
pk[900]: 00f8
pk[901]: 00c2
pk[902]: 0010
pk[903]: 00df
pk[904]: 00cb
pk[905]: 003a
pk[906]: 007e
pk[907]: 0069
pk[908]: 0099
pk[909]: 009a
pk[910]: 0086
pk[911]: 0083
pk[912]: 004d
pk[913]: 009b
pk[914]: 00a1
pk[915]: 0048
pk[916]: 0037
pk[917]: 0072
pk[918]: 00c5
pk[919]: 005a
pk[920]: 0083
pk[921]: 00e6
pk[922]: 00cb
pk[923]: 0020
pk[924]: 00bc
pk[925]: 0087
pk[926]: 009f
pk[927]: 00d9
pk[928]: 00a5
pk[929]: 00ad
pk[930]: 00ff
pk[931]: 003c
pk[932]: 0022
pk[933]: 0051
pk[934]: 0007
pk[935]: 0010
pk[936]: 0098
pk[937]: 00c9
pk[938]: 00cb
pk[939]: 006a
pk[940]: 006a
pk[941]: 0094
pk[942]: 0058
pk[943]: 0009
pk[944]: 0094
pk[945]: 00bd
pk[946]: 0023
pk[947]: 006a
pk[948]: 00b4
pk[949]: 00ec
pk[950]: 000e
pk[951]: 005f
pk[952]: 0042
pk[953]: 0021
pk[954]: 00d5
pk[955]: 0046
pk[956]: 0069
pk[957]: 009c
pk[958]: 0086
pk[959]: 0054
pk[960]: 00e1
pk[961]: 001a
pk[962]: 0037
pk[963]: 004d
pk[964]: 0011
pk[965]: 001a
pk[966]: 009e
pk[967]: 00b7
pk[968]: 008e
pk[969]: 00b7
pk[970]: 0077
pk[971]: 0096
pk[972]: 00ec
pk[973]: 00d4
pk[974]: 003d
pk[975]: 00b5
pk[976]: 0074
pk[977]: 007f
pk[978]: 0024
pk[979]: 00b0
pk[980]: 0098
pk[981]: 005d
pk[982]: 00c4
pk[983]: 003e
pk[984]: 006d
pk[985]: 001c
pk[986]: 002a
pk[987]: 00d6
pk[988]: 00f3
pk[989]: 0020
pk[990]: 0081
pk[991]: 0027
pk[992]: 0069
pk[993]: 00bb
pk[994]: 0044
pk[995]: 0088
pk[996]: 008f
pk[997]: 0082
pk[998]: 000d
pk[999]: 006e
pk[1000]: 0058
pk[1001]: 0005
pk[1002]: 0045
pk[1003]: 0089
pk[1004]: 0094
pk[1005]: 0098
pk[1006]: 00a8
pk[1007]: 00b2
pk[1008]: 000c
pk[1009]: 00a4
pk[1010]: 0062
pk[1011]: 0007
pk[1012]: 00e7
pk[1013]: 0041
pk[1014]: 0029
pk[1015]: 0028
pk[1016]: 00b2
pk[1017]: 005d
pk[1018]: 00f2
pk[1019]: 007f
pk[1020]: 0027
pk[1021]: 00ca
pk[1022]: 0090
pk[1023]: 00bf
pk[1024]: 0089
pk[1025]: 002e
pk[1026]: 0064
pk[1027]: 00ba
pk[1028]: 00a7
pk[1029]: 00c0
pk[1030]: 003b
pk[1031]: 0052
pk[1032]: 009a
pk[1033]: 007a
pk[1034]: 00a2
pk[1035]: 0087
pk[1036]: 0078
pk[1037]: 00c4
pk[1038]: 00f8
pk[1039]: 00f8
pk[1040]: 009b
pk[1041]: 00bb
pk[1042]: 005a
pk[1043]: 00b5
pk[1044]: 00e9
pk[1045]: 0031
pk[1046]: 000e
pk[1047]: 0035
pk[1048]: 00a2
pk[1049]: 0021
pk[1050]: 0072
pk[1051]: 0089
pk[1052]: 0089
pk[1053]: 0092
pk[1054]: 0021
pk[1055]: 0045
pk[1056]: 00c0
pk[1057]: 0049
pk[1058]: 000c
pk[1059]: 0024
pk[1060]: 004b
pk[1061]: 0018
pk[1062]: 0088
pk[1063]: 0008
pk[1064]: 006e
pk[1065]: 00ce
pk[1066]: 00c8
pk[1067]: 0081
pk[1068]: 00be
pk[1069]: 00bc
pk[1070]: 00c8
pk[1071]: 0081
pk[1072]: 0002
pk[1073]: 005a
pk[1074]: 0015
pk[1075]: 0089
pk[1076]: 0077
pk[1077]: 00aa
pk[1078]: 005b
pk[1079]: 0054
pk[1080]: 00c0
pk[1081]: 0061
pk[1082]: 00b0
pk[1083]: 004f
pk[1084]: 00e6
pk[1085]: 00a2
pk[1086]: 0043
pk[1087]: 0052
pk[1088]: 0056
pk[1089]: 0022
pk[1090]: 003a
pk[1091]: 0035
pk[1092]: 0075
pk[1093]: 0046
pk[1094]: 000f
pk[1095]: 0075
pk[1096]: 0043
pk[1097]: 0050
pk[1098]: 00e8
pk[1099]: 00d2
pk[1100]: 0043
pk[1101]: 004c
pk[1102]: 007c
pk[1103]: 0049
pk[1104]: 0083
pk[1105]: 00d1
pk[1106]: 009f
pk[1107]: 00d1
pk[1108]: 008c
pk[1109]: 005e
pk[1110]: 0026
pk[1111]: 0078
pk[1112]: 00ac
pk[1113]: 00ee
pk[1114]: 0039
pk[1115]: 0061
pk[1116]: 00c2
pk[1117]: 0079
pk[1118]: 003e
pk[1119]: 0081
pk[1120]: 00f2
pk[1121]: 008c
pk[1122]: 001e
pk[1123]: 0044
pk[1124]: 0029
pk[1125]: 00da
pk[1126]: 0064
pk[1127]: 0063
pk[1128]: 0081
pk[1129]: 00a6
pk[1130]: 0005
pk[1131]: 0020
pk[1132]: 008b
pk[1133]: 0008
pk[1134]: 003d
pk[1135]: 00e7
pk[1136]: 005f
pk[1137]: 00b4
pk[1138]: 003c
pk[1139]: 0096
pk[1140]: 0051
pk[1141]: 0068
pk[1142]: 0073
pk[1143]: 0048
pk[1144]: 00f1
pk[1145]: 0021
pk[1146]: 0003
pk[1147]: 00e7
pk[1148]: 0001
pk[1149]: 002c
pk[1150]: 0031
pk[1151]: 00c7
pk[1152]: 00d8
pk[1153]: 0021
pk[1154]: 008a
pk[1155]: 001b
pk[1156]: 001b
pk[1157]: 00a8
pk[1158]: 009e
pk[1159]: 0053
pk[1160]: 0021
pk[1161]: 0098
pk[1162]: 0087
pk[1163]: 0047
pk[1164]: 00b4
pk[1165]: 000b
pk[1166]: 006c
pk[1167]: 000d
pk[1168]: 00e8
pk[1169]: 005e
pk[1170]: 0020
pk[1171]: 0088
pk[1172]: 00a6
pk[1173]: 0066
pk[1174]: 0088
pk[1175]: 00ad
pk[1176]: 000e
pk[1177]: 00ab
pk[1178]: 002d
pk[1179]: 0093
pk[1180]: 00a6
pk[1181]: 00c6
pk[1182]: 005a
pk[1183]: 0021
pk[1184]: 00cd
pk[1185]: 00b6
pk[1186]: 0039
pk[1187]: 0009
pk[1188]: 007c
pk[1189]: 009a
pk[1190]: 0019
pk[1191]: 0079
pk[1192]: 002b
pk[1193]: 007d
pk[1194]: 0084
pk[1195]: 006a
pk[1196]: 009a
pk[1197]: 00ba
pk[1198]: 00b1
pk[1199]: 0078
pk[1200]: 0094
pk[1201]: 008a
pk[1202]: 006d
pk[1203]: 0021
pk[1204]: 002c
pk[1205]: 0074
pk[1206]: 006d
pk[1207]: 006c
pk[1208]: 0095
pk[1209]: 00f0
pk[1210]: 0011
pk[1211]: 009d
pk[1212]: 00be
pk[1213]: 0025
pk[1214]: 00b6
pk[1215]: 00de
pk[1216]: 0030
pk[1217]: 00ab
pk[1218]: 00bd
pk[1219]: 00d9
pk[1220]: 00b0
pk[1221]: 0049
pk[1222]: 004b
pk[1223]: 003a
pk[1224]: 0069
pk[1225]: 0015
pk[1226]: 0047
pk[1227]: 00eb
pk[1228]: 00ca
pk[1229]: 0017
pk[1230]: 0096
pk[1231]: 007a
pk[1232]: 00bb
pk[1233]: 0027
pk[1234]: 0001
pk[1235]: 0055
pk[1236]: 00d1
pk[1237]: 00da
pk[1238]: 00bc
pk[1239]: 001a
pk[1240]: 008b
pk[1241]: 00c2
pk[1242]: 00dd
pk[1243]: 0014
pk[1244]: 0037
pk[1245]: 0089
pk[1246]: 0061
pk[1247]: 00b2
pk[1248]: 0000
pk[1249]: 0044
pk[1250]: 00aa
pk[1251]: 002d
pk[1252]: 00a9
pk[1253]: 003c
pk[1254]: 000c
pk[1255]: 0012
pk[1256]: 00b6
pk[1257]: 00d4
pk[1258]: 0030
pk[1259]: 00c2
pk[1260]: 0076
pk[1261]: 0035
pk[1262]: 0032
pk[1263]: 0041
pk[1264]: 00f2
pk[1265]: 009b
pk[1266]: 0095
pk[1267]: 00c8
pk[1268]: 0041
pk[1269]: 000d
pk[1270]: 00fa
pk[1271]: 0019
pk[1272]: 00bf
pk[1273]: 00e2
pk[1274]: 000d
pk[1275]: 00f8
pk[1276]: 00c7
pk[1277]: 0065
pk[1278]: 0069
pk[1279]: 0037
pk[1280]: 0035
pk[1281]: 00c0
pk[1282]: 00bc
pk[1283]: 0029
pk[1284]: 0091
pk[1285]: 00c5
pk[1286]: 0021
pk[1287]: 0021
pk[1288]: 0042
pk[1289]: 0090
pk[1290]: 00be
pk[1291]: 0033
pk[1292]: 0021
pk[1293]: 00db
pk[1294]: 0051
pk[1295]: 0070
pk[1296]: 0079
pk[1297]: 00a3
pk[1298]: 00b4
pk[1299]: 0035
pk[1300]: 0060
pk[1301]: 00b2
pk[1302]: 006e
pk[1303]: 00a0
pk[1304]: 0014
pk[1305]: 0002
pk[1306]: 00db
pk[1307]: 009c
pk[1308]: 004d
pk[1309]: 0085
pk[1310]: 006c
pk[1311]: 0096
pk[1312]: 0094
pk[1313]: 001f
pk[1314]: 0062
pk[1315]: 0011
pk[1316]: 006a
pk[1317]: 0082
pk[1318]: 0045
pk[1319]: 0056
pk[1320]: 00df
pk[1321]: 0024
pk[1322]: 00b9
pk[1323]: 00f9
pk[1324]: 0018
pk[1325]: 00b8
pk[1326]: 0091
pk[1327]: 0055
pk[1328]: 001f
pk[1329]: 002b
pk[1330]: 00a4
pk[1331]: 009a
pk[1332]: 0013
pk[1333]: 0018
pk[1334]: 00ae
pk[1335]: 00c6
pk[1336]: 0033
pk[1337]: 0048
pk[1338]: 0011
pk[1339]: 0063
pk[1340]: 00b5
pk[1341]: 00e3
pk[1342]: 00a3
pk[1343]: 0081
pk[1344]: 0064
pk[1345]: 0007
pk[1346]: 00c3
pk[1347]: 00b8
pk[1348]: 0089
pk[1349]: 0066
pk[1350]: 00c1
pk[1351]: 0006
pk[1352]: 00c1
pk[1353]: 00ca
pk[1354]: 0030
pk[1355]: 0008
pk[1356]: 00c9
pk[1357]: 0013
pk[1358]: 006f
pk[1359]: 00eb
pk[1360]: 00e7
pk[1361]: 009a
pk[1362]: 00bd
pk[1363]: 00f3
pk[1364]: 001e
pk[1365]: 0088
pk[1366]: 0023
pk[1367]: 00a8
pk[1368]: 0077
pk[1369]: 0001
pk[1370]: 0039
pk[1371]: 0020
pk[1372]: 00b4
pk[1373]: 007f
pk[1374]: 00aa
pk[1375]: 00d9
pk[1376]: 00b3
pk[1377]: 0062
pk[1378]: 0009
pk[1379]: 0083
pk[1380]: 0027
pk[1381]: 00a9
pk[1382]: 0087
pk[1383]: 003c
pk[1384]: 00e1
pk[1385]: 0050
pk[1386]: 00c0
pk[1387]: 00e8
pk[1388]: 0037
pk[1389]: 0079
pk[1390]: 003b
pk[1391]: 0078
pk[1392]: 0018
pk[1393]: 0036
pk[1394]: 0099
pk[1395]: 00d1
pk[1396]: 00c0
pk[1397]: 003b
pk[1398]: 009b
pk[1399]: 00ca
pk[1400]: 0093
pk[1401]: 00de
pk[1402]: 00a7
pk[1403]: 0087
pk[1404]: 0054
pk[1405]: 00a9
pk[1406]: 00b6
pk[1407]: 0092
pk[1408]: 00d4
pk[1409]: 003e
pk[1410]: 0072
pk[1411]: 0036
pk[1412]: 003b
pk[1413]: 001c
pk[1414]: 00a6
pk[1415]: 007b
pk[1416]: 006e
pk[1417]: 0045
pk[1418]: 003f
pk[1419]: 0028
pk[1420]: 0031
pk[1421]: 0062
pk[1422]: 0086
pk[1423]: 009a
pk[1424]: 0018
pk[1425]: 00ed
pk[1426]: 00a4
pk[1427]: 0036
pk[1428]: 0089
pk[1429]: 00b2
pk[1430]: 00a5
pk[1431]: 006d
pk[1432]: 0000
pk[1433]: 0027
pk[1434]: 00af
pk[1435]: 0036
pk[1436]: 0067
pk[1437]: 00b6
pk[1438]: 003c
pk[1439]: 0009
pk[1440]: 004c
pk[1441]: 0000
pk[1442]: 0099
pk[1443]: 00ec
pk[1444]: 00e9
pk[1445]: 002d
pk[1446]: 00d6
pk[1447]: 00a8
pk[1448]: 0090
pk[1449]: 0090
pk[1450]: 0092
pk[1451]: 003d
pk[1452]: 0067
pk[1453]: 0038
pk[1454]: 0043
pk[1455]: 0009
pk[1456]: 0051
pk[1457]: 006c
pk[1458]: 007a
pk[1459]: 0054
pk[1460]: 00cd
pk[1461]: 0031
pk[1462]: 0095
pk[1463]: 000f
pk[1464]: 00bc
pk[1465]: 00e2
pk[1466]: 00ca
pk[1467]: 00c8
pk[1468]: 00fa
pk[1469]: 008c
pk[1470]: 00b7
pk[1471]: 00a6
pk[1472]: 0061
pk[1473]: 005a
pk[1474]: 0035
pk[1475]: 00b6
pk[1476]: 008d
pk[1477]: 0075
pk[1478]: 007a
pk[1479]: 001f
pk[1480]: 00c8
pk[1481]: 000e
pk[1482]: 0070
pk[1483]: 0092
pk[1484]: 0038
pk[1485]: 0091
pk[1486]: 00a0
pk[1487]: 0023
pk[1488]: 00e9
pk[1489]: 0096
pk[1490]: 0097
pk[1491]: 00ca
pk[1492]: 00e3
pk[1493]: 00b4
pk[1494]: 00b5
pk[1495]: 00f3
pk[1496]: 0051
pk[1497]: 0099
pk[1498]: 00ba
pk[1499]: 0036
pk[1500]: 0044
pk[1501]: 0057
pk[1502]: 00ba
pk[1503]: 00ad
pk[1504]: 0094
pk[1505]: 00ad
pk[1506]: 0046
pk[1507]: 0004
pk[1508]: 00a7
pk[1509]: 0084
pk[1510]: 00c0
pk[1511]: 0097
pk[1512]: 000e
pk[1513]: 0084
pk[1514]: 003b
pk[1515]: 00cf
pk[1516]: 0083
pk[1517]: 0094
pk[1518]: 00cc
pk[1519]: 0099
pk[1520]: 0031
pk[1521]: 00ee
pk[1522]: 002c
pk[1523]: 00a3
pk[1524]: 005a
pk[1525]: 00f6
pk[1526]: 0004
pk[1527]: 00d8
pk[1528]: 00e2
pk[1529]: 0057
pk[1530]: 0001
pk[1531]: 0035
pk[1532]: 006e
pk[1533]: 007b
pk[1534]: 0095
pk[1535]: 0068
pk[1536]: 00b7
pk[1537]: 002f
pk[1538]: 009b
pk[1539]: 00c8
pk[1540]: 005c
pk[1541]: 000a
pk[1542]: 0013
pk[1543]: 00b9
pk[1544]: 00d0
pk[1545]: 0041
pk[1546]: 0058
pk[1547]: 006f
pk[1548]: 00d5
pk[1549]: 0083
pk[1550]: 00fe
pk[1551]: 00b1
pk[1552]: 002a
pk[1553]: 00fd
pk[1554]: 005a
pk[1555]: 0040
pk[1556]: 002d
pk[1557]: 00d3
pk[1558]: 003b
pk[1559]: 0043
pk[1560]: 0054
pk[1561]: 003f
pk[1562]: 005f
pk[1563]: 00a4
pk[1564]: 00eb
pk[1565]: 0043
pk[1566]: 006c
pk[1567]: 008d
sk[0]: 0046
sk[1]: 0023
sk[2]: 0096
sk[3]: 00f6
sk[4]: 00b2
sk[5]: 001f
sk[6]: 00f6
sk[7]: 0025
sk[8]: 00b9
sk[9]: 006b
sk[10]: 004b
sk[11]: 001f
sk[12]: 005c
sk[13]: 003a
sk[14]: 0038
sk[15]: 00b3
sk[16]: 00c8
sk[17]: 0007
sk[18]: 0008
sk[19]: 00f3
sk[20]: 003b
sk[21]: 00cc
sk[22]: 0017
sk[23]: 0084
sk[24]: 00be
sk[25]: 00db
sk[26]: 0048
sk[27]: 00be
sk[28]: 00e0
sk[29]: 0025
sk[30]: 003b
sk[31]: 0042
sk[32]: 006c
sk[33]: 00fb
sk[34]: 0095
sk[35]: 0061
sk[36]: 0087
sk[37]: 0012
sk[38]: 00ce
sk[39]: 0098
sk[40]: 0025
sk[41]: 00a5
sk[42]: 003b
sk[43]: 005c
sk[44]: 00c8
sk[45]: 007c
sk[46]: 0081
sk[47]: 0043
sk[48]: 00af
sk[49]: 00c4
sk[50]: 006b
sk[51]: 0040
sk[52]: 0062
sk[53]: 007b
sk[54]: 004c
sk[55]: 004b
sk[56]: 00bd
sk[57]: 002e
sk[58]: 0038
sk[59]: 002c
sk[60]: 00ec
sk[61]: 0045
sk[62]: 007e
sk[63]: 0048
sk[64]: 00a7
sk[65]: 0013
sk[66]: 000c
sk[67]: 0084
sk[68]: 0012
sk[69]: 00c2
sk[70]: 0060
sk[71]: 005c
sk[72]: 0047
sk[73]: 0059
sk[74]: 0015
sk[75]: 00bf
sk[76]: 0008
sk[77]: 0047
sk[78]: 006d
sk[79]: 00e4
sk[80]: 00b8
sk[81]: 00aa
sk[82]: 0070
sk[83]: 0029
sk[84]: 008a
sk[85]: 00b9
sk[86]: 009d
sk[87]: 00ef
sk[88]: 0093
sk[89]: 0086
sk[90]: 00c1
sk[91]: 00f1
sk[92]: 0012
sk[93]: 0053
sk[94]: 00c3
sk[95]: 0098
sk[96]: 00c6
sk[97]: 00d0
sk[98]: 00ad
sk[99]: 00f9
sk[100]: 00d9
sk[101]: 007e
sk[102]: 0022
sk[103]: 0064
sk[104]: 00a0
sk[105]: 0026
sk[106]: 00e4
sk[107]: 0002
sk[108]: 0011
sk[109]: 00b5
sk[110]: 009a
sk[111]: 0026
sk[112]: 00a2
sk[113]: 003f
sk[114]: 0016
sk[115]: 0010
sk[116]: 002a
sk[117]: 0022
sk[118]: 000a
sk[119]: 006f
sk[120]: 002b
sk[121]: 00f2
sk[122]: 007a
sk[123]: 0014
sk[124]: 0001
sk[125]: 005f
sk[126]: 006f
sk[127]: 0032
sk[128]: 0061
sk[129]: 00e2
sk[130]: 0074
sk[131]: 0075
sk[132]: 008c
sk[133]: 00cc
sk[134]: 00b7
sk[135]: 0057
sk[136]: 00a4
sk[137]: 0006
sk[138]: 0000
sk[139]: 0053
sk[140]: 0017
sk[141]: 00a0
sk[142]: 0050
sk[143]: 00c2
sk[144]: 002d
sk[145]: 0039
sk[146]: 009f
sk[147]: 0099
sk[148]: 0049
sk[149]: 0074
sk[150]: 00aa
sk[151]: 0073
sk[152]: 0013
sk[153]: 00ed
sk[154]: 00fb
sk[155]: 00ba
sk[156]: 0046
sk[157]: 0008
sk[158]: 0037
sk[159]: 0016
sk[160]: 0013
sk[161]: 0098
sk[162]: 0054
sk[163]: 0081
sk[164]: 00b0
sk[165]: 00ae
sk[166]: 00c8
sk[167]: 009e
sk[168]: 00dd
sk[169]: 0060
sk[170]: 0002
sk[171]: 0075
sk[172]: 004b
sk[173]: 0018
sk[174]: 00e2
sk[175]: 0075
sk[176]: 00b9
sk[177]: 007a
sk[178]: 00f8
sk[179]: 00b4
sk[180]: 00ad
sk[181]: 00c6
sk[182]: 0082
sk[183]: 00b5
sk[184]: 0073
sk[185]: 00b9
sk[186]: 00a5
sk[187]: 0068
sk[188]: 0073
sk[189]: 0024
sk[190]: 0023
sk[191]: 00b2
sk[192]: 000d
sk[193]: 00f4
sk[194]: 0018
sk[195]: 00da
sk[196]: 000a
sk[197]: 000f
sk[198]: 0069
sk[199]: 0008
sk[200]: 0066
sk[201]: 003b
sk[202]: 00e9
sk[203]: 0083
sk[204]: 003e
sk[205]: 00da
sk[206]: 0012
sk[207]: 0069
sk[208]: 0012
sk[209]: 0077
sk[210]: 0002
sk[211]: 00e9
sk[212]: 007d
sk[213]: 00b8
sk[214]: 002b
sk[215]: 00b1
sk[216]: 001d
sk[217]: 00e2
sk[218]: 002c
sk[219]: 00c0
sk[220]: 0076
sk[221]: 005e
sk[222]: 0026
sk[223]: 00ca
sk[224]: 00b6
sk[225]: 000d
sk[226]: 0025
sk[227]: 006c
sk[228]: 00bb
sk[229]: 0027
sk[230]: 0022
sk[231]: 0013
sk[232]: 0015
sk[233]: 00c2
sk[234]: 00c1
sk[235]: 00d7
sk[236]: 005f
sk[237]: 0056
sk[238]: 00e6
sk[239]: 00aa
sk[240]: 004c
sk[241]: 0008
sk[242]: 00cc
sk[243]: 0083
sk[244]: 0045
sk[245]: 00a1
sk[246]: 006b
sk[247]: 0068
sk[248]: 0000
sk[249]: 00e3
sk[250]: 0030
sk[251]: 0075
sk[252]: 006c
sk[253]: 00ec
sk[254]: 0002
sk[255]: 0067
sk[256]: 00c0
sk[257]: 002d
sk[258]: 001d
sk[259]: 00e1
sk[260]: 00ca
sk[261]: 003c
sk[262]: 00a8
sk[263]: 0073
sk[264]: 0081
sk[265]: 0056
sk[266]: 00c8
sk[267]: 008e
sk[268]: 00d6
sk[269]: 00ae
sk[270]: 0090
sk[271]: 00f8
sk[272]: 0042
sk[273]: 009b
sk[274]: 005a
sk[275]: 00ad
sk[276]: 008c
sk[277]: 005a
sk[278]: 0053
sk[279]: 00fe
sk[280]: 0026
sk[281]: 0087
sk[282]: 00d2
sk[283]: 0007
sk[284]: 004f
sk[285]: 00db
sk[286]: 0018
sk[287]: 00b1
sk[288]: 0024
sk[289]: 001a
sk[290]: 0048
sk[291]: 009e
sk[292]: 0085
sk[293]: 0050
sk[294]: 00ab
sk[295]: 00aa
sk[296]: 007b
sk[297]: 0055
sk[298]: 009a
sk[299]: 00cc
sk[300]: 006a
sk[301]: 00b4
sk[302]: 00b5
sk[303]: 0039
sk[304]: 006c
sk[305]: 0082
sk[306]: 001b
sk[307]: 0085
sk[308]: 0043
sk[309]: 0005
sk[310]: 00ca
sk[311]: 00a6
sk[312]: 006a
sk[313]: 0047
sk[314]: 0080
sk[315]: 0039
sk[316]: 00cc
sk[317]: 002c
sk[318]: 00f7
sk[319]: 0036
sk[320]: 005f
sk[321]: 0056
sk[322]: 00a3
sk[323]: 0044
sk[324]: 00d1
sk[325]: 00f0
sk[326]: 009a
sk[327]: 00a7
sk[328]: 003a
sk[329]: 0066
sk[330]: 007a
sk[331]: 0015
sk[332]: 00ce
sk[333]: 0071
sk[334]: 00b2
sk[335]: 0010
sk[336]: 00d9
sk[337]: 00b9
sk[338]: 0030
sk[339]: 0040
sk[340]: 003a
sk[341]: 0038
sk[342]: 00a2
sk[343]: 00a1
sk[344]: 000c
sk[345]: 00de
sk[346]: 00f3
sk[347]: 009b
sk[348]: 009e
sk[349]: 0089
sk[350]: 0060
sk[351]: 00ad
sk[352]: 0046
sk[353]: 0033
sk[354]: 0013
sk[355]: 00b7
sk[356]: 00ab
sk[357]: 003d
sk[358]: 0072
sk[359]: 003a
sk[360]: 0071
sk[361]: 005c
sk[362]: 001d
sk[363]: 0072
sk[364]: 009b
sk[365]: 0079
sk[366]: 00b4
sk[367]: 006b
sk[368]: 007b
sk[369]: 00ce
sk[370]: 00db
sk[371]: 0031
sk[372]: 00b9
sk[373]: 002b
sk[374]: 0077
sk[375]: 0086
sk[376]: 004a
sk[377]: 00c9
sk[378]: 0014
sk[379]: 006c
sk[380]: 0015
sk[381]: 00a8
sk[382]: 009b
sk[383]: 00af
sk[384]: 00e1
sk[385]: 0060
sk[386]: 001f
sk[387]: 00cc
sk[388]: 0083
sk[389]: 0028
sk[390]: 00e6
sk[391]: 0057
sk[392]: 00a6
sk[393]: 00eb
sk[394]: 00ba
sk[395]: 00be
sk[396]: 00f8
sk[397]: 0011
sk[398]: 0059
sk[399]: 0086
sk[400]: 00dc
sk[401]: 0087
sk[402]: 00f1
sk[403]: 0072
sk[404]: 0034
sk[405]: 00ba
sk[406]: 00a3
sk[407]: 0088
sk[408]: 005e
sk[409]: 0033
sk[410]: 00a1
sk[411]: 0085
sk[412]: 0068
sk[413]: 008b
sk[414]: 0091
sk[415]: 0058
sk[416]: 0083
sk[417]: 00ec
sk[418]: 0048
sk[419]: 0009
sk[420]: 00c5
sk[421]: 00c9
sk[422]: 0069
sk[423]: 001b
sk[424]: 0095
sk[425]: 00a0
sk[426]: 0081
sk[427]: 0079
sk[428]: 00a4
sk[429]: 0085
sk[430]: 0077
sk[431]: 00c1
sk[432]: 0072
sk[433]: 004a
sk[434]: 00a1
sk[435]: 00bc
sk[436]: 00f6
sk[437]: 0064
sk[438]: 00d5
sk[439]: 00ea
sk[440]: 0049
sk[441]: 00c6
sk[442]: 009a
sk[443]: 0072
sk[444]: 007c
sk[445]: 00da
sk[446]: 003e
sk[447]: 0031
sk[448]: 00e7
sk[449]: 001e
sk[450]: 0067
sk[451]: 0025
sk[452]: 007e
sk[453]: 0065
sk[454]: 00e8
sk[455]: 0047
sk[456]: 00df
sk[457]: 0059
sk[458]: 0047
sk[459]: 00ab
sk[460]: 00e2
sk[461]: 0096
sk[462]: 0075
sk[463]: 0073
sk[464]: 00ac
sk[465]: 002d
sk[466]: 0061
sk[467]: 0059
sk[468]: 00f9
sk[469]: 0066
sk[470]: 0099
sk[471]: 00ae
sk[472]: 0016
sk[473]: 00a5
sk[474]: 005f
sk[475]: 0065
sk[476]: 004e
sk[477]: 008f
sk[478]: 00e0
sk[479]: 000b
sk[480]: 00ea
sk[481]: 0067
sk[482]: 0091
sk[483]: 0013
sk[484]: 005a
sk[485]: 00a0
sk[486]: 0045
sk[487]: 00d8
sk[488]: 0051
sk[489]: 00d0
sk[490]: 00d7
sk[491]: 003c
sk[492]: 00d1
sk[493]: 0059
sk[494]: 00be
sk[495]: 005c
sk[496]: 0000
sk[497]: 0004
sk[498]: 001b
sk[499]: 0010
sk[500]: 0033
sk[501]: 00af
sk[502]: 0018
sk[503]: 0050
sk[504]: 000c
sk[505]: 00c6
sk[506]: 002b
sk[507]: 008d
sk[508]: 00c6
sk[509]: 0036
sk[510]: 00be
sk[511]: 00d7
sk[512]: 000e
sk[513]: 004d
sk[514]: 00d4
sk[515]: 0098
sk[516]: 001e
sk[517]: 0037
sk[518]: 0088
sk[519]: 0020
sk[520]: 00eb
sk[521]: 0073
sk[522]: 00a7
sk[523]: 00d3
sk[524]: 00bc
sk[525]: 0069
sk[526]: 00a4
sk[527]: 002d
sk[528]: 00cb
sk[529]: 0091
sk[530]: 0003
sk[531]: 00ec
sk[532]: 008b
sk[533]: 00b8
sk[534]: 0002
sk[535]: 0007
sk[536]: 0063
sk[537]: 00ba
sk[538]: 0076
sk[539]: 00b4
sk[540]: 0082
sk[541]: 0011
sk[542]: 0080
sk[543]: 0065
sk[544]: 0029
sk[545]: 0055
sk[546]: 003d
sk[547]: 00a6
sk[548]: 0048
sk[549]: 0075
sk[550]: 0039
sk[551]: 0089
sk[552]: 0047
sk[553]: 0022
sk[554]: 0044
sk[555]: 0036
sk[556]: 0072
sk[557]: 00bc
sk[558]: 007e
sk[559]: 00c3
sk[560]: 0016
sk[561]: 0046
sk[562]: 0015
sk[563]: 008c
sk[564]: 00a6
sk[565]: 0063
sk[566]: 0043
sk[567]: 00e2
sk[568]: 00e6
sk[569]: 009b
sk[570]: 00d6
sk[571]: 0038
sk[572]: 00cc
sk[573]: 004a
sk[574]: 003c
sk[575]: 0071
sk[576]: 001e
sk[577]: 0037
sk[578]: 0075
sk[579]: 00ce
sk[580]: 0088
sk[581]: 00b4
sk[582]: 0096
sk[583]: 008a
sk[584]: 002c
sk[585]: 00db
sk[586]: 00b7
sk[587]: 0072
sk[588]: 00a0
sk[589]: 00d9
sk[590]: 00af
sk[591]: 006a
sk[592]: 00a3
sk[593]: 0091
sk[594]: 0068
sk[595]: 0055
sk[596]: 0000
sk[597]: 0074
sk[598]: 00a6
sk[599]: 0058
sk[600]: 002d
sk[601]: 00a1
sk[602]: 0093
sk[603]: 0066
sk[604]: 00f6
sk[605]: 001b
sk[606]: 00e1
sk[607]: 0074
sk[608]: 0003
sk[609]: 0044
sk[610]: 0072
sk[611]: 0018
sk[612]: 002d
sk[613]: 0090
sk[614]: 000c
sk[615]: 0005
sk[616]: 0098
sk[617]: 0036
sk[618]: 009a
sk[619]: 006c
sk[620]: 0065
sk[621]: 006d
sk[622]: 0030
sk[623]: 00c9
sk[624]: 0095
sk[625]: 0057
sk[626]: 00aa
sk[627]: 00f6
sk[628]: 00e4
sk[629]: 0030
sk[630]: 0023
sk[631]: 00f4
sk[632]: 0017
sk[633]: 00bc
sk[634]: 004a
sk[635]: 002d
sk[636]: 008e
sk[637]: 0029
sk[638]: 0044
sk[639]: 00c4
sk[640]: 00e6
sk[641]: 0001
sk[642]: 0001
sk[643]: 0052
sk[644]: 00bf
sk[645]: 0028
sk[646]: 00eb
sk[647]: 0021
sk[648]: 0019
sk[649]: 00a9
sk[650]: 0004
sk[651]: 0067
sk[652]: 00aa
sk[653]: 0018
sk[654]: 0057
sk[655]: 0006
sk[656]: 0039
sk[657]: 006f
sk[658]: 0093
sk[659]: 0037
sk[660]: 0022
sk[661]: 00f1
sk[662]: 0093
sk[663]: 0073
sk[664]: 00d3
sk[665]: 0043
sk[666]: 001b
sk[667]: 0001
sk[668]: 007b
sk[669]: 0079
sk[670]: 004a
sk[671]: 0019
sk[672]: 00b9
sk[673]: 008b
sk[674]: 0039
sk[675]: 0090
sk[676]: 0018
sk[677]: 008b
sk[678]: 00cc
sk[679]: 0071
sk[680]: 0042
sk[681]: 00cd
sk[682]: 0023
sk[683]: 00a7
sk[684]: 005a
sk[685]: 0028
sk[686]: 00a9
sk[687]: 005d
sk[688]: 002c
sk[689]: 0025
sk[690]: 00aa
sk[691]: 00f7
sk[692]: 00c2
sk[693]: 00df
sk[694]: 00d8
sk[695]: 00ba
sk[696]: 0006
sk[697]: 00e4
sk[698]: 0070
sk[699]: 0066
sk[700]: 0094
sk[701]: 000c
sk[702]: 001f
sk[703]: 00a5
sk[704]: 0056
sk[705]: 0055
sk[706]: 00da
sk[707]: 00b9
sk[708]: 00be
sk[709]: 00b6
sk[710]: 0086
sk[711]: 0042
sk[712]: 008c
sk[713]: 0072
sk[714]: 00e9
sk[715]: 0000
sk[716]: 0070
sk[717]: 00f8
sk[718]: 001a
sk[719]: 006b
sk[720]: 00fb
sk[721]: 0063
sk[722]: 0045
sk[723]: 0076
sk[724]: 0061
sk[725]: 0051
sk[726]: 00ff
sk[727]: 00c0
sk[728]: 0059
sk[729]: 00ea
sk[730]: 0064
sk[731]: 0025
sk[732]: 005f
sk[733]: 00b2
sk[734]: 004a
sk[735]: 00a3
sk[736]: 00e4
sk[737]: 007c
sk[738]: 00fc
sk[739]: 0001
sk[740]: 0030
sk[741]: 000f
sk[742]: 0043
sk[743]: 0091
sk[744]: 001a
sk[745]: 00e3
sk[746]: 0093
sk[747]: 00e6
sk[748]: 00d7
sk[749]: 00a8
sk[750]: 009e
sk[751]: 001c
sk[752]: 0022
sk[753]: 008f
sk[754]: 003b
sk[755]: 0055
sk[756]: 00d7
sk[757]: 000b
sk[758]: 009d
sk[759]: 009d
sk[760]: 004b
sk[761]: 005c
sk[762]: 00c0
sk[763]: 0006
sk[764]: 0071
sk[765]: 00ad
sk[766]: 000b
sk[767]: 0069
sk[768]: 0048
sk[769]: 0067
sk[770]: 004a
sk[771]: 0029
sk[772]: 0069
sk[773]: 0052
sk[774]: 00ff
sk[775]: 0057
sk[776]: 0065
sk[777]: 00a3
sk[778]: 0075
sk[779]: 002c
sk[780]: 0093
sk[781]: 00c8
sk[782]: 007e
sk[783]: 00e6
sk[784]: 0015
sk[785]: 00c6
sk[786]: 0083
sk[787]: 00e3
sk[788]: 00a1
sk[789]: 00f7
sk[790]: 0091
sk[791]: 004d
sk[792]: 002c
sk[793]: 0072
sk[794]: 0053
sk[795]: 004e
sk[796]: 006b
sk[797]: 00b2
sk[798]: 0031
sk[799]: 00bb
sk[800]: 0010
sk[801]: 0016
sk[802]: 00ea
sk[803]: 0060
sk[804]: 00e7
sk[805]: 00a5
sk[806]: 00b8
sk[807]: 0097
sk[808]: 00e3
sk[809]: 002e
sk[810]: 004d
sk[811]: 0062
sk[812]: 00a3
sk[813]: 0083
sk[814]: 0094
sk[815]: 005f
sk[816]: 00d9
sk[817]: 0091
sk[818]: 0036
sk[819]: 00bf
sk[820]: 00e7
sk[821]: 00cf
sk[822]: 0014
sk[823]: 0048
sk[824]: 0049
sk[825]: 00ec
sk[826]: 00aa
sk[827]: 004a
sk[828]: 0005
sk[829]: 0047
sk[830]: 00c0
sk[831]: 0040
sk[832]: 0099
sk[833]: 009a
sk[834]: 0055
sk[835]: 00f2
sk[836]: 0049
sk[837]: 0075
sk[838]: 0027
sk[839]: 00c5
sk[840]: 0072
sk[841]: 00eb
sk[842]: 00cb
sk[843]: 002f
sk[844]: 00ec
sk[845]: 0046
sk[846]: 00eb
sk[847]: 0029
sk[848]: 0041
sk[849]: 0007
sk[850]: 00f4
sk[851]: 00bf
sk[852]: 0064
sk[853]: 0079
sk[854]: 006b
sk[855]: 00e4
sk[856]: 00bc
sk[857]: 0099
sk[858]: 00bc
sk[859]: 006b
sk[860]: 0086
sk[861]: 00b2
sk[862]: 0098
sk[863]: 0060
sk[864]: 0051
sk[865]: 0057
sk[866]: 0045
sk[867]: 00f5
sk[868]: 00b4
sk[869]: 0004
sk[870]: 00ec
sk[871]: 0079
sk[872]: 0009
sk[873]: 003b
sk[874]: 00b3
sk[875]: 006f
sk[876]: 00c7
sk[877]: 00bb
sk[878]: 00ad
sk[879]: 0079
sk[880]: 00b6
sk[881]: 00c0
sk[882]: 00c8
sk[883]: 00a3
sk[884]: 00ba
sk[885]: 004e
sk[886]: 00db
sk[887]: 0056
sk[888]: 00a4
sk[889]: 00c8
sk[890]: 008f
sk[891]: 00f9
sk[892]: 0047
sk[893]: 008b
sk[894]: 0074
sk[895]: 00e7
sk[896]: 00c9
sk[897]: 000b
sk[898]: 002c
sk[899]: 0025
sk[900]: 0069
sk[901]: 0008
sk[902]: 0082
sk[903]: 00ac
sk[904]: 0084
sk[905]: 0051
sk[906]: 008d
sk[907]: 0051
sk[908]: 0011
sk[909]: 00ff
sk[910]: 00a3
sk[911]: 006f
sk[912]: 00f1
sk[913]: 00e4
sk[914]: 009b
sk[915]: 005b
sk[916]: 00bc
sk[917]: 005a
sk[918]: 00f4
sk[919]: 00e5
sk[920]: 007b
sk[921]: 00c2
sk[922]: 0002
sk[923]: 00af
sk[924]: 0012
sk[925]: 005c
sk[926]: 0066
sk[927]: 0008
sk[928]: 002a
sk[929]: 0030
sk[930]: 004d
sk[931]: 00da
sk[932]: 0086
sk[933]: 00ed
sk[934]: 00b6
sk[935]: 0006
sk[936]: 00b6
sk[937]: 0043
sk[938]: 0073
sk[939]: 00ab
sk[940]: 00b6
sk[941]: 0068
sk[942]: 003b
sk[943]: 0056
sk[944]: 0094
sk[945]: 0096
sk[946]: 0061
sk[947]: 00ab
sk[948]: 0060
sk[949]: 00c0
sk[950]: 0011
sk[951]: 00e1
sk[952]: 004c
sk[953]: 002b
sk[954]: 0023
sk[955]: 00c8
sk[956]: 0092
sk[957]: 0035
sk[958]: 0087
sk[959]: 00a9
sk[960]: 0074
sk[961]: 00cc
sk[962]: 0079
sk[963]: 0057
sk[964]: 004c
sk[965]: 0082
sk[966]: 0095
sk[967]: 0062
sk[968]: 0010
sk[969]: 0091
sk[970]: 0080
sk[971]: 001d
sk[972]: 0037
sk[973]: 0023
sk[974]: 0097
sk[975]: 0057
sk[976]: 0085
sk[977]: 0058
sk[978]: 0031
sk[979]: 0069
sk[980]: 00c3
sk[981]: 0058
sk[982]: 00d1
sk[983]: 0082
sk[984]: 0059
sk[985]: 006c
sk[986]: 0034
sk[987]: 004b
sk[988]: 0022
sk[989]: 0096
sk[990]: 004a
sk[991]: 0040
sk[992]: 0095
sk[993]: 008b
sk[994]: 0022
sk[995]: 0072
sk[996]: 00ba
sk[997]: 00fb
sk[998]: 000f
sk[999]: 00fd
sk[1000]: 002b
sk[1001]: 00cc
sk[1002]: 00e4
sk[1003]: 00b1
sk[1004]: 004f
sk[1005]: 0002
sk[1006]: 0010
sk[1007]: 00cb
sk[1008]: 00c8
sk[1009]: 0014
sk[1010]: 0047
sk[1011]: 006f
sk[1012]: 0040
sk[1013]: 0047
sk[1014]: 00f4
sk[1015]: 0080
sk[1016]: 0056
sk[1017]: 0083
sk[1018]: 0096
sk[1019]: 0074
sk[1020]: 002b
sk[1021]: 0001
sk[1022]: 0023
sk[1023]: 0032
sk[1024]: 00a1
sk[1025]: 00a1
sk[1026]: 0019
sk[1027]: 0010
sk[1028]: 0056
sk[1029]: 00df
sk[1030]: 00b9
sk[1031]: 00b4
sk[1032]: 003a
sk[1033]: 0075
sk[1034]: 007b
sk[1035]: 00a6
sk[1036]: 00ac
sk[1037]: 0037
sk[1038]: 00bc
sk[1039]: 0066
sk[1040]: 0062
sk[1041]: 00e4
sk[1042]: 0033
sk[1043]: 00ca
sk[1044]: 00f1
sk[1045]: 0059
sk[1046]: 0083
sk[1047]: 0095
sk[1048]: 00e6
sk[1049]: 004f
sk[1050]: 00a9
sk[1051]: 00a7
sk[1052]: 002f
sk[1053]: 003b
sk[1054]: 0071
sk[1055]: 0000
sk[1056]: 006a
sk[1057]: 00eb
sk[1058]: 008e
sk[1059]: 00b3
sk[1060]: 0073
sk[1061]: 0076
sk[1062]: 00fd
sk[1063]: 00d6
sk[1064]: 0017
sk[1065]: 004a
sk[1066]: 00e0
sk[1067]: 0060
sk[1068]: 005a
sk[1069]: 006b
sk[1070]: 0053
sk[1071]: 002a
sk[1072]: 00b6
sk[1073]: 0014
sk[1074]: 00f0
sk[1075]: 0026
sk[1076]: 0041
sk[1077]: 00ae
sk[1078]: 0056
sk[1079]: 003b
sk[1080]: 00f2
sk[1081]: 0030
sk[1082]: 0019
sk[1083]: 0000
sk[1084]: 00f4
sk[1085]: 0001
sk[1086]: 00ed
sk[1087]: 00d3
sk[1088]: 00b4
sk[1089]: 0031
sk[1090]: 00d3
sk[1091]: 0090
sk[1092]: 00a9
sk[1093]: 00ea
sk[1094]: 004a
sk[1095]: 002b
sk[1096]: 0036
sk[1097]: 009b
sk[1098]: 00cf
sk[1099]: 00f4
sk[1100]: 00b8
sk[1101]: 0038
sk[1102]: 00e8
sk[1103]: 004a
sk[1104]: 0088
sk[1105]: 0079
sk[1106]: 0091
sk[1107]: 00a1
sk[1108]: 0067
sk[1109]: 00c8
sk[1110]: 0068
sk[1111]: 00cc
sk[1112]: 009b
sk[1113]: 00a1
sk[1114]: 006b
sk[1115]: 003c
sk[1116]: 0031
sk[1117]: 0089
sk[1118]: 00b3
sk[1119]: 00e1
sk[1120]: 0090
sk[1121]: 008f
sk[1122]: 0073
sk[1123]: 0064
sk[1124]: 0060
sk[1125]: 004f
sk[1126]: 0038
sk[1127]: 002a
sk[1128]: 002a
sk[1129]: 000a
sk[1130]: 0085
sk[1131]: 00c8
sk[1132]: 00e3
sk[1133]: 0041
sk[1134]: 0098
sk[1135]: 001b
sk[1136]: 009f
sk[1137]: 00ec
sk[1138]: 0047
sk[1139]: 0033
sk[1140]: 0030
sk[1141]: 002a
sk[1142]: 001e
sk[1143]: 00db
sk[1144]: 0044
sk[1145]: 0071
sk[1146]: 009e
sk[1147]: 003b
sk[1148]: 0053
sk[1149]: 007b
sk[1150]: 0077
sk[1151]: 000b
sk[1152]: 0023
sk[1153]: 0085
sk[1154]: 007a
sk[1155]: 0068
sk[1156]: 00f3
sk[1157]: 003f
sk[1158]: 0091
sk[1159]: 00bc
sk[1160]: 0080
sk[1161]: 0031
sk[1162]: 001c
sk[1163]: 0093
sk[1164]: 002a
sk[1165]: 0000
sk[1166]: 0059
sk[1167]: 0000
sk[1168]: 00fb
sk[1169]: 006c
sk[1170]: 00e1
sk[1171]: 00d3
sk[1172]: 00a7
sk[1173]: 003a
sk[1174]: 0033
sk[1175]: 0095
sk[1176]: 00e0
sk[1177]: 00e0
sk[1178]: 003d
sk[1179]: 0054
sk[1180]: 00dc
sk[1181]: 0025
sk[1182]: 00a6
sk[1183]: 0037
sk[1184]: 00b6
sk[1185]: 00f7
sk[1186]: 0074
sk[1187]: 0009
sk[1188]: 00b5
sk[1189]: 00c1
sk[1190]: 0078
sk[1191]: 004c
sk[1192]: 0082
sk[1193]: 000a
sk[1194]: 0015
sk[1195]: 00aa
sk[1196]: 0065
sk[1197]: 00b3
sk[1198]: 0051
sk[1199]: 00c6
sk[1200]: 001b
sk[1201]: 0004
sk[1202]: 00a0
sk[1203]: 0063
sk[1204]: 00cc
sk[1205]: 00cb
sk[1206]: 0074
sk[1207]: 0059
sk[1208]: 004d
sk[1209]: 006d
sk[1210]: 0007
sk[1211]: 009b
sk[1212]: 0082
sk[1213]: 00c2
sk[1214]: 00bc
sk[1215]: 0040
sk[1216]: 0054
sk[1217]: 0001
sk[1218]: 00ec
sk[1219]: 0072
sk[1220]: 00bf
sk[1221]: 005e
sk[1222]: 0039
sk[1223]: 009d
sk[1224]: 0020
sk[1225]: 0009
sk[1226]: 0032
sk[1227]: 0086
sk[1228]: 008c
sk[1229]: 0022
sk[1230]: 00b4
sk[1231]: 00c9
sk[1232]: 001b
sk[1233]: 009b
sk[1234]: 0087
sk[1235]: 007f
sk[1236]: 001d
sk[1237]: 0076
sk[1238]: 0081
sk[1239]: 0061
sk[1240]: 002a
sk[1241]: 0006
sk[1242]: 008e
sk[1243]: 008b
sk[1244]: 0079
sk[1245]: 00d0
sk[1246]: 00d2
sk[1247]: 002c
sk[1248]: 0042
sk[1249]: 0026
sk[1250]: 00a4
sk[1251]: 00ed
sk[1252]: 00e1
sk[1253]: 006b
sk[1254]: 005a
sk[1255]: 0050
sk[1256]: 0069
sk[1257]: 0087
sk[1258]: 00b4
sk[1259]: 0078
sk[1260]: 001a
sk[1261]: 0024
sk[1262]: 0044
sk[1263]: 00fc
sk[1264]: 0075
sk[1265]: 00c2
sk[1266]: 0084
sk[1267]: 005a
sk[1268]: 00ac
sk[1269]: 0017
sk[1270]: 0057
sk[1271]: 0063
sk[1272]: 0081
sk[1273]: 0045
sk[1274]: 0032
sk[1275]: 0023
sk[1276]: 0056
sk[1277]: 0003
sk[1278]: 0089
sk[1279]: 0043
sk[1280]: 00a2
sk[1281]: 0000
sk[1282]: 00ab
sk[1283]: 0082
sk[1284]: 00e4
sk[1285]: 0017
sk[1286]: 00a3
sk[1287]: 0054
sk[1288]: 00ea
sk[1289]: 00a7
sk[1290]: 00de
sk[1291]: 00f9
sk[1292]: 0050
sk[1293]: 0045
sk[1294]: 002b
sk[1295]: 0067
sk[1296]: 00ce
sk[1297]: 00e8
sk[1298]: 0033
sk[1299]: 00fd
sk[1300]: 0067
sk[1301]: 0016
sk[1302]: 00fb
sk[1303]: 00a6
sk[1304]: 0091
sk[1305]: 00c0
sk[1306]: 0026
sk[1307]: 00c5
sk[1308]: 00df
sk[1309]: 0065
sk[1310]: 004c
sk[1311]: 0021
sk[1312]: 00f4
sk[1313]: 0017
sk[1314]: 00a0
sk[1315]: 00a2
sk[1316]: 004b
sk[1317]: 00be
sk[1318]: 004a
sk[1319]: 004a
sk[1320]: 0094
sk[1321]: 00c3
sk[1322]: 00c6
sk[1323]: 0046
sk[1324]: 00d5
sk[1325]: 00c0
sk[1326]: 00d1
sk[1327]: 00a8
sk[1328]: 00a3
sk[1329]: 00d8
sk[1330]: 005b
sk[1331]: 0027
sk[1332]: 0049
sk[1333]: 0022
sk[1334]: 002a
sk[1335]: 00fe
sk[1336]: 0007
sk[1337]: 000b
sk[1338]: 000f
sk[1339]: 0001
sk[1340]: 005c
sk[1341]: 0094
sk[1342]: 0089
sk[1343]: 001b
sk[1344]: 00d9
sk[1345]: 0019
sk[1346]: 00b6
sk[1347]: 0058
sk[1348]: 00f1
sk[1349]: 0021
sk[1350]: 0075
sk[1351]: 0055
sk[1352]: 00cc
sk[1353]: 00d7
sk[1354]: 0072
sk[1355]: 009d
sk[1356]: 0092
sk[1357]: 000b
sk[1358]: 0059
sk[1359]: 003f
sk[1360]: 00f6
sk[1361]: 0031
sk[1362]: 00ca
sk[1363]: 00c0
sk[1364]: 007e
sk[1365]: 002d
sk[1366]: 00e9
sk[1367]: 0053
sk[1368]: 00cd
sk[1369]: 00d6
sk[1370]: 00be
sk[1371]: 00a0
sk[1372]: 0061
sk[1373]: 0016
sk[1374]: 0058
sk[1375]: 0093
sk[1376]: 00a2
sk[1377]: 00fd
sk[1378]: 00b8
sk[1379]: 0079
sk[1380]: 0019
sk[1381]: 000a
sk[1382]: 0008
sk[1383]: 0034
sk[1384]: 003c
sk[1385]: 0096
sk[1386]: 00a6
sk[1387]: 00cc
sk[1388]: 00ca
sk[1389]: 0076
sk[1390]: 0026
sk[1391]: 0049
sk[1392]: 0038
sk[1393]: 00d2
sk[1394]: 002b
sk[1395]: 0027
sk[1396]: 0016
sk[1397]: 0048
sk[1398]: 0002
sk[1399]: 0061
sk[1400]: 00cf
sk[1401]: 0080
sk[1402]: 009b
sk[1403]: 0081
sk[1404]: 00a8
sk[1405]: 0003
sk[1406]: 0097
sk[1407]: 0068
sk[1408]: 00b3
sk[1409]: 00cc
sk[1410]: 00b1
sk[1411]: 00f9
sk[1412]: 0010
sk[1413]: 00fa
sk[1414]: 005c
sk[1415]: 005e
sk[1416]: 0003
sk[1417]: 00b2
sk[1418]: 005c
sk[1419]: 00eb
sk[1420]: 007b
sk[1421]: 0041
sk[1422]: 008f
sk[1423]: 005b
sk[1424]: 00a3
sk[1425]: 009b
sk[1426]: 008c
sk[1427]: 0071
sk[1428]: 003e
sk[1429]: 0063
sk[1430]: 0092
sk[1431]: 0004
sk[1432]: 005b
sk[1433]: 0058
sk[1434]: 00e1
sk[1435]: 00c9
sk[1436]: 002d
sk[1437]: 0073
sk[1438]: 00a4
sk[1439]: 004e
sk[1440]: 00e1
sk[1441]: 0080
sk[1442]: 0028
sk[1443]: 002e
sk[1444]: 00b2
sk[1445]: 00b4
sk[1446]: 0074
sk[1447]: 00d3
sk[1448]: 0046
sk[1449]: 004c
sk[1450]: 00f4
sk[1451]: 00aa
sk[1452]: 0048
sk[1453]: 0023
sk[1454]: 00af
sk[1455]: 00cb
sk[1456]: 0028
sk[1457]: 005e
sk[1458]: 004a
sk[1459]: 0001
sk[1460]: 008b
sk[1461]: 00a8
sk[1462]: 00a7
sk[1463]: 00c4
sk[1464]: 0076
sk[1465]: 0097
sk[1466]: 000d
sk[1467]: 00a0
sk[1468]: 00e2
sk[1469]: 009d
sk[1470]: 00e5
sk[1471]: 00f6
sk[1472]: 0099
sk[1473]: 00f0
sk[1474]: 0068
sk[1475]: 0046
sk[1476]: 005d
sk[1477]: 006a
sk[1478]: 0036
sk[1479]: 00d0
sk[1480]: 0012
sk[1481]: 0035
sk[1482]: 001f
sk[1483]: 0046
sk[1484]: 0099
sk[1485]: 005a
sk[1486]: 007c
sk[1487]: 0030
sk[1488]: 003a
sk[1489]: 003a
sk[1490]: 00ae
sk[1491]: 0026
sk[1492]: 00a7
sk[1493]: 00af
sk[1494]: 00bd
sk[1495]: 0099
sk[1496]: 0062
sk[1497]: 00ed
sk[1498]: 0060
sk[1499]: 00a9
sk[1500]: 00dd
sk[1501]: 00e9
sk[1502]: 005b
sk[1503]: 004b
sk[1504]: 00f8
sk[1505]: 00ac
sk[1506]: 007a
sk[1507]: 0047
sk[1508]: 0049
sk[1509]: 003c
sk[1510]: 00f6
sk[1511]: 001e
sk[1512]: 00e3
sk[1513]: 00f2
sk[1514]: 009b
sk[1515]: 00a0
sk[1516]: 0046
sk[1517]: 00ce
sk[1518]: 0015
sk[1519]: 00a1
sk[1520]: 0076
sk[1521]: 003f
sk[1522]: 000c
sk[1523]: 0021
sk[1524]: 00fa
sk[1525]: 00ba
sk[1526]: 0024
sk[1527]: 0067
sk[1528]: 0000
sk[1529]: 00ad
sk[1530]: 0054
sk[1531]: 0009
sk[1532]: 00b0
sk[1533]: 00ad
sk[1534]: 00dc
sk[1535]: 00cc
sk[1536]: 0086
sk[1537]: 009b
sk[1538]: 0010
sk[1539]: 0014
sk[1540]: 0008
sk[1541]: 0070
sk[1542]: 0029
sk[1543]: 0092
sk[1544]: 0024
sk[1545]: 0083
sk[1546]: 0069
sk[1547]: 006a
sk[1548]: 003c
sk[1549]: 00b1
sk[1550]: 0044
sk[1551]: 00df
sk[1552]: 0085
sk[1553]: 0053
sk[1554]: 0097
sk[1555]: 00b2
sk[1556]: 00bc
sk[1557]: 00b3
sk[1558]: 00f4
sk[1559]: 0042
sk[1560]: 004f
sk[1561]: 00f3
sk[1562]: 0054
sk[1563]: 00bd
sk[1564]: 009a
sk[1565]: 005d
sk[1566]: 002b
sk[1567]: 0055
sk[1568]: 0092
sk[1569]: 009c
sk[1570]: 0037
sk[1571]: 00a2
sk[1572]: 00bd
sk[1573]: 00f0
sk[1574]: 0005
sk[1575]: 0066
sk[1576]: 00d9
sk[1577]: 00a1
sk[1578]: 00d7
sk[1579]: 0000
sk[1580]: 0004
sk[1581]: 00de
sk[1582]: 002a
sk[1583]: 00bd
sk[1584]: 0048
sk[1585]: 0071
sk[1586]: 00ae
sk[1587]: 00a7
sk[1588]: 0012
sk[1589]: 00aa
sk[1590]: 0067
sk[1591]: 0010
sk[1592]: 004a
sk[1593]: 0039
sk[1594]: 0058
sk[1595]: 000e
sk[1596]: 005d
sk[1597]: 00ec
sk[1598]: 0045
sk[1599]: 00bd
sk[1600]: 0095
sk[1601]: 0024
sk[1602]: 0009
sk[1603]: 0065
sk[1604]: 00cc
sk[1605]: 0059
sk[1606]: 0012
sk[1607]: 00b7
sk[1608]: 001d
sk[1609]: 00e1
sk[1610]: 0070
sk[1611]: 0018
sk[1612]: 0057
sk[1613]: 0008
sk[1614]: 009c
sk[1615]: 0001
sk[1616]: 0000
sk[1617]: 0047
sk[1618]: 00d5
sk[1619]: 00cd
sk[1620]: 000a
sk[1621]: 00ca
sk[1622]: 00c5
sk[1623]: 0048
sk[1624]: 0022
sk[1625]: 007b
sk[1626]: 00f7
sk[1627]: 0068
sk[1628]: 0003
sk[1629]: 0079
sk[1630]: 005a
sk[1631]: 00cd
sk[1632]: 00ba
sk[1633]: 0083
sk[1634]: 004a
sk[1635]: 0007
sk[1636]: 00fc
sk[1637]: 0025
sk[1638]: 00f8
sk[1639]: 007b
sk[1640]: 001e
sk[1641]: 0081
sk[1642]: 00e0
sk[1643]: 00c0
sk[1644]: 0094
sk[1645]: 00b9
sk[1646]: 0031
sk[1647]: 0040
sk[1648]: 00b2
sk[1649]: 00a6
sk[1650]: 003d
sk[1651]: 003a
sk[1652]: 0079
sk[1653]: 00ba
sk[1654]: 00a8
sk[1655]: 0054
sk[1656]: 00d4
sk[1657]: 0022
sk[1658]: 0080
sk[1659]: 00a5
sk[1660]: 00aa
sk[1661]: 0023
sk[1662]: 003a
sk[1663]: 0085
sk[1664]: 0000
sk[1665]: 00fa
sk[1666]: 00fa
sk[1667]: 008a
sk[1668]: 00a8
sk[1669]: 00b5
sk[1670]: 004a
sk[1671]: 0019
sk[1672]: 0001
sk[1673]: 0061
sk[1674]: 00de
sk[1675]: 009a
sk[1676]: 001e
sk[1677]: 003d
sk[1678]: 00b4
sk[1679]: 00c8
sk[1680]: 009e
sk[1681]: 0021
sk[1682]: 0012
sk[1683]: 00f9
sk[1684]: 006b
sk[1685]: 00ca
sk[1686]: 00e3
sk[1687]: 00d8
sk[1688]: 00bd
sk[1689]: 00a8
sk[1690]: 0028
sk[1691]: 00b0
sk[1692]: 00a6
sk[1693]: 0043
sk[1694]: 00aa
sk[1695]: 002d
sk[1696]: 008b
sk[1697]: 0058
sk[1698]: 00bb
sk[1699]: 0070
sk[1700]: 00c8
sk[1701]: 0067
sk[1702]: 00b9
sk[1703]: 00bd
sk[1704]: 00db
sk[1705]: 0056
sk[1706]: 0088
sk[1707]: 0026
sk[1708]: 0031
sk[1709]: 0042
sk[1710]: 00e7
sk[1711]: 00b2
sk[1712]: 006d
sk[1713]: 009d
sk[1714]: 003c
sk[1715]: 002a
sk[1716]: 0087
sk[1717]: 0090
sk[1718]: 00a5
sk[1719]: 0043
sk[1720]: 00f2
sk[1721]: 001b
sk[1722]: 0063
sk[1723]: 0059
sk[1724]: 007a
sk[1725]: 00b8
sk[1726]: 009a
sk[1727]: 0027
sk[1728]: 009d
sk[1729]: 00e9
sk[1730]: 0070
sk[1731]: 00c0
sk[1732]: 00cc
sk[1733]: 000f
sk[1734]: 00ff
sk[1735]: 0025
sk[1736]: 002d
sk[1737]: 000c
sk[1738]: 0005
sk[1739]: 00a2
sk[1740]: 004a
sk[1741]: 00a9
sk[1742]: 0091
sk[1743]: 006e
sk[1744]: 00cc
sk[1745]: 00cd
sk[1746]: 006b
sk[1747]: 0015
sk[1748]: 0093
sk[1749]: 00b8
sk[1750]: 0043
sk[1751]: 006f
sk[1752]: 00f5
sk[1753]: 0055
sk[1754]: 0011
sk[1755]: 0087
sk[1756]: 00f8
sk[1757]: 00b7
sk[1758]: 0094
sk[1759]: 0026
sk[1760]: 0037
sk[1761]: 005c
sk[1762]: 005a
sk[1763]: 00b0
sk[1764]: 0084
sk[1765]: 0045
sk[1766]: 0005
sk[1767]: 0048
sk[1768]: 00e3
sk[1769]: 0078
sk[1770]: 001b
sk[1771]: 0071
sk[1772]: 0029
sk[1773]: 0056
sk[1774]: 00fb
sk[1775]: 0029
sk[1776]: 004b
sk[1777]: 00e9
sk[1778]: 0008
sk[1779]: 0023
sk[1780]: 00a2
sk[1781]: 00cc
sk[1782]: 0085
sk[1783]: 0045
sk[1784]: 00b6
sk[1785]: 002c
sk[1786]: 002c
sk[1787]: 0073
sk[1788]: 004a
sk[1789]: 0080
sk[1790]: 0046
sk[1791]: 00d0
sk[1792]: 0010
sk[1793]: 00ba
sk[1794]: 00b6
sk[1795]: 00a6
sk[1796]: 0055
sk[1797]: 0044
sk[1798]: 00e5
sk[1799]: 0008
sk[1800]: 008c
sk[1801]: 0006
sk[1802]: 00bc
sk[1803]: 00fc
sk[1804]: 0066
sk[1805]: 00c4
sk[1806]: 007f
sk[1807]: 00f7
sk[1808]: 003a
sk[1809]: 001a
sk[1810]: 0003
sk[1811]: 00a4
sk[1812]: 009f
sk[1813]: 0093
sk[1814]: 003b
sk[1815]: 00eb
sk[1816]: 0086
sk[1817]: 00b4
sk[1818]: 006a
sk[1819]: 0081
sk[1820]: 0048
sk[1821]: 00b3
sk[1822]: 0056
sk[1823]: 000c
sk[1824]: 00fe
sk[1825]: 0098
sk[1826]: 0061
sk[1827]: 000c
sk[1828]: 009b
sk[1829]: 0086
sk[1830]: 00e6
sk[1831]: 0052
sk[1832]: 0051
sk[1833]: 00bc
sk[1834]: 00ab
sk[1835]: 0028
sk[1836]: 00cc
sk[1837]: 00c7
sk[1838]: 002b
sk[1839]: 0088
sk[1840]: 001a
sk[1841]: 00ce
sk[1842]: 00d8
sk[1843]: 0091
sk[1844]: 003f
sk[1845]: 00db
sk[1846]: 0001
sk[1847]: 0065
sk[1848]: 000e
sk[1849]: 0004
sk[1850]: 0062
sk[1851]: 0000
sk[1852]: 0031
sk[1853]: 008f
sk[1854]: 0017
sk[1855]: 00b6
sk[1856]: 0065
sk[1857]: 0038
sk[1858]: 007a
sk[1859]: 001e
sk[1860]: 00f2
sk[1861]: 00c2
sk[1862]: 00bb
sk[1863]: 00e5
sk[1864]: 0068
sk[1865]: 004e
sk[1866]: 0012
sk[1867]: 00c2
sk[1868]: 00c9
sk[1869]: 0024
sk[1870]: 0065
sk[1871]: 0021
sk[1872]: 0023
sk[1873]: 0079
sk[1874]: 0063
sk[1875]: 00a4
sk[1876]: 0010
sk[1877]: 002b
sk[1878]: 0072
sk[1879]: 00b9
sk[1880]: 001f
sk[1881]: 007e
sk[1882]: 0058
sk[1883]: 0020
sk[1884]: 00d7
sk[1885]: 00cc
sk[1886]: 006a
sk[1887]: 001f
sk[1888]: 00c5
sk[1889]: 00cb
sk[1890]: 0031
sk[1891]: 0074
sk[1892]: 0008
sk[1893]: 0022
sk[1894]: 0061
sk[1895]: 0028
sk[1896]: 0030
sk[1897]: 0044
sk[1898]: 0079
sk[1899]: 0038
sk[1900]: 0070
sk[1901]: 00b1
sk[1902]: 00a5
sk[1903]: 00d0
sk[1904]: 00c8
sk[1905]: 00c8
sk[1906]: 00ac
sk[1907]: 0062
sk[1908]: 008b
sk[1909]: 00a9
sk[1910]: 0099
sk[1911]: 0074
sk[1912]: 00a0
sk[1913]: 0078
sk[1914]: 007e
sk[1915]: 003b
sk[1916]: 00b5
sk[1917]: 00bc
sk[1918]: 00d6
sk[1919]: 00c7
sk[1920]: 00b1
sk[1921]: 0054
sk[1922]: 00a3
sk[1923]: 007b
sk[1924]: 00ec
sk[1925]: 009c
sk[1926]: 0071
sk[1927]: 0037
sk[1928]: 009b
sk[1929]: 0086
sk[1930]: 0059
sk[1931]: 001e
sk[1932]: 00e3
sk[1933]: 0049
sk[1934]: 00ad
sk[1935]: 006d
sk[1936]: 0087
sk[1937]: 0071
sk[1938]: 00b4
sk[1939]: 0006
sk[1940]: 0029
sk[1941]: 00b6
sk[1942]: 00d5
sk[1943]: 000e
sk[1944]: 00ff
sk[1945]: 0074
sk[1946]: 0016
sk[1947]: 00ea
sk[1948]: 0000
sk[1949]: 00d0
sk[1950]: 00e8
sk[1951]: 00e8
sk[1952]: 0060
sk[1953]: 00a1
sk[1954]: 00a6
sk[1955]: 0011
sk[1956]: 0002
sk[1957]: 0059
sk[1958]: 0098
sk[1959]: 0097
sk[1960]: 0084
sk[1961]: 0051
sk[1962]: 00f6
sk[1963]: 0067
sk[1964]: 0000
sk[1965]: 0062
sk[1966]: 00fc
sk[1967]: 004f
sk[1968]: 0047
sk[1969]: 0049
sk[1970]: 00b2
sk[1971]: 00b4
sk[1972]: 0034
sk[1973]: 009c
sk[1974]: 0052
sk[1975]: 00b4
sk[1976]: 003b
sk[1977]: 003a
sk[1978]: 0066
sk[1979]: 003a
sk[1980]: 0024
sk[1981]: 00e2
sk[1982]: 004d
sk[1983]: 008b
sk[1984]: 0090
sk[1985]: 0010
sk[1986]: 005b
sk[1987]: 0007
sk[1988]: 00b5
sk[1989]: 0047
sk[1990]: 0091
sk[1991]: 009f
sk[1992]: 00a2
sk[1993]: 00a0
sk[1994]: 001f
sk[1995]: 0080
sk[1996]: 00b7
sk[1997]: 00b2
sk[1998]: 006d
sk[1999]: 00c0
sk[2000]: 007d
sk[2001]: 000c
sk[2002]: 0034
sk[2003]: 0082
sk[2004]: 00ec
sk[2005]: 008b
sk[2006]: 00ce
sk[2007]: 00bd
sk[2008]: 0065
sk[2009]: 0022
sk[2010]: 00b2
sk[2011]: 0045
sk[2012]: 0029
sk[2013]: 0049
sk[2014]: 00cb
sk[2015]: 00af
sk[2016]: 0057
sk[2017]: 0045
sk[2018]: 0060
sk[2019]: 0030
sk[2020]: 0027
sk[2021]: 003c
sk[2022]: 00be
sk[2023]: 00c5
sk[2024]: 003f
sk[2025]: 007a
sk[2026]: 0049
sk[2027]: 00a8
sk[2028]: 00ec
sk[2029]: 005a
sk[2030]: 0075
sk[2031]: 007c
sk[2032]: 00b1
sk[2033]: 00b6
sk[2034]: 0043
sk[2035]: 0085
sk[2036]: 00bd
sk[2037]: 0032
sk[2038]: 00b9
sk[2039]: 0030
sk[2040]: 00a3
sk[2041]: 008b
sk[2042]: 0069
sk[2043]: 004e
sk[2044]: 00e7
sk[2045]: 0015
sk[2046]: 0085
sk[2047]: 00f9
sk[2048]: 0095
sk[2049]: 004b
sk[2050]: 00f2
sk[2051]: 0072
sk[2052]: 0015
sk[2053]: 002a
sk[2054]: 0085
sk[2055]: 00cc
sk[2056]: 0039
sk[2057]: 0089
sk[2058]: 0059
sk[2059]: 0022
sk[2060]: 001d
sk[2061]: 0074
sk[2062]: 00b5
sk[2063]: 0089
sk[2064]: 00d6
sk[2065]: 0056
sk[2066]: 0085
sk[2067]: 0017
sk[2068]: 00b6
sk[2069]: 0004
sk[2070]: 00cd
sk[2071]: 00b7
sk[2072]: 00b1
sk[2073]: 00b0
sk[2074]: 00f8
sk[2075]: 00b1
sk[2076]: 0008
sk[2077]: 0077
sk[2078]: 0028
sk[2079]: 0018
sk[2080]: 007b
sk[2081]: 0084
sk[2082]: 0009
sk[2083]: 00a0
sk[2084]: 0078
sk[2085]: 0056
sk[2086]: 00b3
sk[2087]: 002a
sk[2088]: 0037
sk[2089]: 00ec
sk[2090]: 009d
sk[2091]: 0020
sk[2092]: 00c5
sk[2093]: 002e
sk[2094]: 0081
sk[2095]: 006c
sk[2096]: 002d
sk[2097]: 005f
sk[2098]: 00f7
sk[2099]: 000a
sk[2100]: 0093
sk[2101]: 00e6
sk[2102]: 00ba
sk[2103]: 00d1
sk[2104]: 006a
sk[2105]: 006c
sk[2106]: 00f0
sk[2107]: 00da
sk[2108]: 004c
sk[2109]: 0016
sk[2110]: 00c1
sk[2111]: 007e
sk[2112]: 006a
sk[2113]: 0056
sk[2114]: 008b
sk[2115]: 0033
sk[2116]: 0037
sk[2117]: 0088
sk[2118]: 00f0
sk[2119]: 001a
sk[2120]: 001f
sk[2121]: 00fa
sk[2122]: 0098
sk[2123]: 002f
sk[2124]: 00e8
sk[2125]: 00a9
sk[2126]: 0094
sk[2127]: 006d
sk[2128]: 0085
sk[2129]: 000b
sk[2130]: 00ff
sk[2131]: 0005
sk[2132]: 004e
sk[2133]: 000e
sk[2134]: 009b
sk[2135]: 000c
sk[2136]: 0055
sk[2137]: 00a5
sk[2138]: 003d
sk[2139]: 0079
sk[2140]: 0025
sk[2141]: 000a
sk[2142]: 0044
sk[2143]: 0034
sk[2144]: 0011
sk[2145]: 009f
sk[2146]: 00a2
sk[2147]: 008b
sk[2148]: 0006
sk[2149]: 0028
sk[2150]: 001f
sk[2151]: 0055
sk[2152]: 0095
sk[2153]: 0044
sk[2154]: 0082
sk[2155]: 00ab
sk[2156]: 0034
sk[2157]: 0079
sk[2158]: 00b4
sk[2159]: 005c
sk[2160]: 00ee
sk[2161]: 0082
sk[2162]: 0026
sk[2163]: 00f5
sk[2164]: 00d6
sk[2165]: 0059
sk[2166]: 0038
sk[2167]: 0021
sk[2168]: 0049
sk[2169]: 0050
sk[2170]: 00e4
sk[2171]: 0054
sk[2172]: 0011
sk[2173]: 0029
sk[2174]: 002d
sk[2175]: 008a
sk[2176]: 0009
sk[2177]: 00bf
sk[2178]: 00e5
sk[2179]: 009c
sk[2180]: 0003
sk[2181]: 00d3
sk[2182]: 0002
sk[2183]: 003a
sk[2184]: 00be
sk[2185]: 0003
sk[2186]: 0018
sk[2187]: 00f9
sk[2188]: 00ea
sk[2189]: 0018
sk[2190]: 007f
sk[2191]: 0030
sk[2192]: 0089
sk[2193]: 0049
sk[2194]: 00e2
sk[2195]: 00c2
sk[2196]: 0078
sk[2197]: 00b9
sk[2198]: 0006
sk[2199]: 00ca
sk[2200]: 0029
sk[2201]: 00ce
sk[2202]: 004b
sk[2203]: 0018
sk[2204]: 006c
sk[2205]: 004b
sk[2206]: 0005
sk[2207]: 0042
sk[2208]: 00cf
sk[2209]: 0076
sk[2210]: 003a
sk[2211]: 00ed
sk[2212]: 0075
sk[2213]: 0057
sk[2214]: 00e1
sk[2215]: 00d3
sk[2216]: 0024
sk[2217]: 00c6
sk[2218]: 00d5
sk[2219]: 0041
sk[2220]: 00d6
sk[2221]: 0079
sk[2222]: 009a
sk[2223]: 002a
sk[2224]: 00e4
sk[2225]: 0016
sk[2226]: 00c1
sk[2227]: 0019
sk[2228]: 00a6
sk[2229]: 00a6
sk[2230]: 007a
sk[2231]: 0006
sk[2232]: 00f9
sk[2233]: 0065
sk[2234]: 0045
sk[2235]: 00f3
sk[2236]: 00b8
sk[2237]: 0018
sk[2238]: 00b8
sk[2239]: 0052
sk[2240]: 0076
sk[2241]: 000d
sk[2242]: 0085
sk[2243]: 000b
sk[2244]: 009a
sk[2245]: 0010
sk[2246]: 0065
sk[2247]: 0000
sk[2248]: 000b
sk[2249]: 0064
sk[2250]: 0099
sk[2251]: 00f9
sk[2252]: 008e
sk[2253]: 004c
sk[2254]: 00c8
sk[2255]: 00b1
sk[2256]: 0075
sk[2257]: 006c
sk[2258]: 004b
sk[2259]: 00df
sk[2260]: 0029
sk[2261]: 00b6
sk[2262]: 00bf
sk[2263]: 0083
sk[2264]: 003a
sk[2265]: 00df
sk[2266]: 00d0
sk[2267]: 005e
sk[2268]: 0030
sk[2269]: 0085
sk[2270]: 0081
sk[2271]: 0011
sk[2272]: 0078
sk[2273]: 006b
sk[2274]: 005b
sk[2275]: 0039
sk[2276]: 0074
sk[2277]: 00f7
sk[2278]: 00c3
sk[2279]: 005f
sk[2280]: 0042
sk[2281]: 009a
sk[2282]: 000e
sk[2283]: 0002
sk[2284]: 00a6
sk[2285]: 0043
sk[2286]: 0082
sk[2287]: 00aa
sk[2288]: 008b
sk[2289]: 00da
sk[2290]: 0007
sk[2291]: 009a
sk[2292]: 00b4
sk[2293]: 00ea
sk[2294]: 00c0
sk[2295]: 00f8
sk[2296]: 00c9
sk[2297]: 0039
sk[2298]: 00dc
sk[2299]: 0062
sk[2300]: 0038
sk[2301]: 0039
sk[2302]: 009c
sk[2303]: 007a
sk[2304]: 00c6
sk[2305]: 00ba
sk[2306]: 0027
sk[2307]: 0059
sk[2308]: 0014
sk[2309]: 0079
sk[2310]: 0003
sk[2311]: 0004
sk[2312]: 008a
sk[2313]: 0035
sk[2314]: 0070
sk[2315]: 008e
sk[2316]: 00de
sk[2317]: 004a
sk[2318]: 0084
sk[2319]: 00d2
sk[2320]: 0053
sk[2321]: 00c0
sk[2322]: 001d
sk[2323]: 00a7
sk[2324]: 0075
sk[2325]: 007b
sk[2326]: 0078
sk[2327]: 006c
sk[2328]: 000d
sk[2329]: 00eb
sk[2330]: 0080
sk[2331]: 00dd
sk[2332]: 0092
sk[2333]: 0060
sk[2334]: 00ec
sk[2335]: 0026
sk[2336]: 0070
sk[2337]: 0087
sk[2338]: 0042
sk[2339]: 0053
sk[2340]: 0064
sk[2341]: 009c
sk[2342]: 002c
sk[2343]: 00f3
sk[2344]: 0010
sk[2345]: 005a
sk[2346]: 0052
sk[2347]: 00fa
sk[2348]: 00ba
sk[2349]: 0007
sk[2350]: 0087
sk[2351]: 004e
sk[2352]: 00a6
sk[2353]: 0041
sk[2354]: 009c
sk[2355]: 00ef
sk[2356]: 0092
sk[2357]: 0089
sk[2358]: 00c1
sk[2359]: 007c
sk[2360]: 0069
sk[2361]: 008a
sk[2362]: 00b4
sk[2363]: 0070
sk[2364]: 0058
sk[2365]: 0001
sk[2366]: 00b8
sk[2367]: 009e
sk[2368]: 00a5
sk[2369]: 00a4
sk[2370]: 000f
sk[2371]: 00c1
sk[2372]: 008c
sk[2373]: 000c
sk[2374]: 004a
sk[2375]: 009a
sk[2376]: 00aa
sk[2377]: 0005
sk[2378]: 007b
sk[2379]: 0060
sk[2380]: 0052
sk[2381]: 0013
sk[2382]: 003f
sk[2383]: 0061
sk[2384]: 0044
sk[2385]: 00d3
sk[2386]: 0019
sk[2387]: 00ba
sk[2388]: 00bb
sk[2389]: 00f2
sk[2390]: 000e
sk[2391]: 0076
sk[2392]: 0088
sk[2393]: 0041
sk[2394]: 00fd
sk[2395]: 0025
sk[2396]: 00c5
sk[2397]: 0051
sk[2398]: 0069
sk[2399]: 0004
sk[2400]: 00a4
sk[2401]: 0009
sk[2402]: 000b
sk[2403]: 00bb
sk[2404]: 008b
sk[2405]: 00ad
sk[2406]: 001c
sk[2407]: 001c
sk[2408]: 0053
sk[2409]: 0002
sk[2410]: 0096
sk[2411]: 00cd
sk[2412]: 00df
sk[2413]: 0003
sk[2414]: 0075
sk[2415]: 007b
sk[2416]: 0033
sk[2417]: 004d
sk[2418]: 00e3
sk[2419]: 0094
sk[2420]: 0092
sk[2421]: 00a5
sk[2422]: 0045
sk[2423]: 007c
sk[2424]: 00ec
sk[2425]: 00d4
sk[2426]: 00c0
sk[2427]: 000f
sk[2428]: 0018
sk[2429]: 0072
sk[2430]: 005d
sk[2431]: 00c4
sk[2432]: 008a
sk[2433]: 00b4
sk[2434]: 00e8
sk[2435]: 0030
sk[2436]: 00f8
sk[2437]: 00c2
sk[2438]: 0010
sk[2439]: 00df
sk[2440]: 00cb
sk[2441]: 003a
sk[2442]: 007e
sk[2443]: 0069
sk[2444]: 0099
sk[2445]: 009a
sk[2446]: 0086
sk[2447]: 0083
sk[2448]: 004d
sk[2449]: 009b
sk[2450]: 00a1
sk[2451]: 0048
sk[2452]: 0037
sk[2453]: 0072
sk[2454]: 00c5
sk[2455]: 005a
sk[2456]: 0083
sk[2457]: 00e6
sk[2458]: 00cb
sk[2459]: 0020
sk[2460]: 00bc
sk[2461]: 0087
sk[2462]: 009f
sk[2463]: 00d9
sk[2464]: 00a5
sk[2465]: 00ad
sk[2466]: 00ff
sk[2467]: 003c
sk[2468]: 0022
sk[2469]: 0051
sk[2470]: 0007
sk[2471]: 0010
sk[2472]: 0098
sk[2473]: 00c9
sk[2474]: 00cb
sk[2475]: 006a
sk[2476]: 006a
sk[2477]: 0094
sk[2478]: 0058
sk[2479]: 0009
sk[2480]: 0094
sk[2481]: 00bd
sk[2482]: 0023
sk[2483]: 006a
sk[2484]: 00b4
sk[2485]: 00ec
sk[2486]: 000e
sk[2487]: 005f
sk[2488]: 0042
sk[2489]: 0021
sk[2490]: 00d5
sk[2491]: 0046
sk[2492]: 0069
sk[2493]: 009c
sk[2494]: 0086
sk[2495]: 0054
sk[2496]: 00e1
sk[2497]: 001a
sk[2498]: 0037
sk[2499]: 004d
sk[2500]: 0011
sk[2501]: 001a
sk[2502]: 009e
sk[2503]: 00b7
sk[2504]: 008e
sk[2505]: 00b7
sk[2506]: 0077
sk[2507]: 0096
sk[2508]: 00ec
sk[2509]: 00d4
sk[2510]: 003d
sk[2511]: 00b5
sk[2512]: 0074
sk[2513]: 007f
sk[2514]: 0024
sk[2515]: 00b0
sk[2516]: 0098
sk[2517]: 005d
sk[2518]: 00c4
sk[2519]: 003e
sk[2520]: 006d
sk[2521]: 001c
sk[2522]: 002a
sk[2523]: 00d6
sk[2524]: 00f3
sk[2525]: 0020
sk[2526]: 0081
sk[2527]: 0027
sk[2528]: 0069
sk[2529]: 00bb
sk[2530]: 0044
sk[2531]: 0088
sk[2532]: 008f
sk[2533]: 0082
sk[2534]: 000d
sk[2535]: 006e
sk[2536]: 0058
sk[2537]: 0005
sk[2538]: 0045
sk[2539]: 0089
sk[2540]: 0094
sk[2541]: 0098
sk[2542]: 00a8
sk[2543]: 00b2
sk[2544]: 000c
sk[2545]: 00a4
sk[2546]: 0062
sk[2547]: 0007
sk[2548]: 00e7
sk[2549]: 0041
sk[2550]: 0029
sk[2551]: 0028
sk[2552]: 00b2
sk[2553]: 005d
sk[2554]: 00f2
sk[2555]: 007f
sk[2556]: 0027
sk[2557]: 00ca
sk[2558]: 0090
sk[2559]: 00bf
sk[2560]: 0089
sk[2561]: 002e
sk[2562]: 0064
sk[2563]: 00ba
sk[2564]: 00a7
sk[2565]: 00c0
sk[2566]: 003b
sk[2567]: 0052
sk[2568]: 009a
sk[2569]: 007a
sk[2570]: 00a2
sk[2571]: 0087
sk[2572]: 0078
sk[2573]: 00c4
sk[2574]: 00f8
sk[2575]: 00f8
sk[2576]: 009b
sk[2577]: 00bb
sk[2578]: 005a
sk[2579]: 00b5
sk[2580]: 00e9
sk[2581]: 0031
sk[2582]: 000e
sk[2583]: 0035
sk[2584]: 00a2
sk[2585]: 0021
sk[2586]: 0072
sk[2587]: 0089
sk[2588]: 0089
sk[2589]: 0092
sk[2590]: 0021
sk[2591]: 0045
sk[2592]: 00c0
sk[2593]: 0049
sk[2594]: 000c
sk[2595]: 0024
sk[2596]: 004b
sk[2597]: 0018
sk[2598]: 0088
sk[2599]: 0008
sk[2600]: 006e
sk[2601]: 00ce
sk[2602]: 00c8
sk[2603]: 0081
sk[2604]: 00be
sk[2605]: 00bc
sk[2606]: 00c8
sk[2607]: 0081
sk[2608]: 0002
sk[2609]: 005a
sk[2610]: 0015
sk[2611]: 0089
sk[2612]: 0077
sk[2613]: 00aa
sk[2614]: 005b
sk[2615]: 0054
sk[2616]: 00c0
sk[2617]: 0061
sk[2618]: 00b0
sk[2619]: 004f
sk[2620]: 00e6
sk[2621]: 00a2
sk[2622]: 0043
sk[2623]: 0052
sk[2624]: 0056
sk[2625]: 0022
sk[2626]: 003a
sk[2627]: 0035
sk[2628]: 0075
sk[2629]: 0046
sk[2630]: 000f
sk[2631]: 0075
sk[2632]: 0043
sk[2633]: 0050
sk[2634]: 00e8
sk[2635]: 00d2
sk[2636]: 0043
sk[2637]: 004c
sk[2638]: 007c
sk[2639]: 0049
sk[2640]: 0083
sk[2641]: 00d1
sk[2642]: 009f
sk[2643]: 00d1
sk[2644]: 008c
sk[2645]: 005e
sk[2646]: 0026
sk[2647]: 0078
sk[2648]: 00ac
sk[2649]: 00ee
sk[2650]: 0039
sk[2651]: 0061
sk[2652]: 00c2
sk[2653]: 0079
sk[2654]: 003e
sk[2655]: 0081
sk[2656]: 00f2
sk[2657]: 008c
sk[2658]: 001e
sk[2659]: 0044
sk[2660]: 0029
sk[2661]: 00da
sk[2662]: 0064
sk[2663]: 0063
sk[2664]: 0081
sk[2665]: 00a6
sk[2666]: 0005
sk[2667]: 0020
sk[2668]: 008b
sk[2669]: 0008
sk[2670]: 003d
sk[2671]: 00e7
sk[2672]: 005f
sk[2673]: 00b4
sk[2674]: 003c
sk[2675]: 0096
sk[2676]: 0051
sk[2677]: 0068
sk[2678]: 0073
sk[2679]: 0048
sk[2680]: 00f1
sk[2681]: 0021
sk[2682]: 0003
sk[2683]: 00e7
sk[2684]: 0001
sk[2685]: 002c
sk[2686]: 0031
sk[2687]: 00c7
sk[2688]: 00d8
sk[2689]: 0021
sk[2690]: 008a
sk[2691]: 001b
sk[2692]: 001b
sk[2693]: 00a8
sk[2694]: 009e
sk[2695]: 0053
sk[2696]: 0021
sk[2697]: 0098
sk[2698]: 0087
sk[2699]: 0047
sk[2700]: 00b4
sk[2701]: 000b
sk[2702]: 006c
sk[2703]: 000d
sk[2704]: 00e8
sk[2705]: 005e
sk[2706]: 0020
sk[2707]: 0088
sk[2708]: 00a6
sk[2709]: 0066
sk[2710]: 0088
sk[2711]: 00ad
sk[2712]: 000e
sk[2713]: 00ab
sk[2714]: 002d
sk[2715]: 0093
sk[2716]: 00a6
sk[2717]: 00c6
sk[2718]: 005a
sk[2719]: 0021
sk[2720]: 00cd
sk[2721]: 00b6
sk[2722]: 0039
sk[2723]: 0009
sk[2724]: 007c
sk[2725]: 009a
sk[2726]: 0019
sk[2727]: 0079
sk[2728]: 002b
sk[2729]: 007d
sk[2730]: 0084
sk[2731]: 006a
sk[2732]: 009a
sk[2733]: 00ba
sk[2734]: 00b1
sk[2735]: 0078
sk[2736]: 0094
sk[2737]: 008a
sk[2738]: 006d
sk[2739]: 0021
sk[2740]: 002c
sk[2741]: 0074
sk[2742]: 006d
sk[2743]: 006c
sk[2744]: 0095
sk[2745]: 00f0
sk[2746]: 0011
sk[2747]: 009d
sk[2748]: 00be
sk[2749]: 0025
sk[2750]: 00b6
sk[2751]: 00de
sk[2752]: 0030
sk[2753]: 00ab
sk[2754]: 00bd
sk[2755]: 00d9
sk[2756]: 00b0
sk[2757]: 0049
sk[2758]: 004b
sk[2759]: 003a
sk[2760]: 0069
sk[2761]: 0015
sk[2762]: 0047
sk[2763]: 00eb
sk[2764]: 00ca
sk[2765]: 0017
sk[2766]: 0096
sk[2767]: 007a
sk[2768]: 00bb
sk[2769]: 0027
sk[2770]: 0001
sk[2771]: 0055
sk[2772]: 00d1
sk[2773]: 00da
sk[2774]: 00bc
sk[2775]: 001a
sk[2776]: 008b
sk[2777]: 00c2
sk[2778]: 00dd
sk[2779]: 0014
sk[2780]: 0037
sk[2781]: 0089
sk[2782]: 0061
sk[2783]: 00b2
sk[2784]: 0000
sk[2785]: 0044
sk[2786]: 00aa
sk[2787]: 002d
sk[2788]: 00a9
sk[2789]: 003c
sk[2790]: 000c
sk[2791]: 0012
sk[2792]: 00b6
sk[2793]: 00d4
sk[2794]: 0030
sk[2795]: 00c2
sk[2796]: 0076
sk[2797]: 0035
sk[2798]: 0032
sk[2799]: 0041
sk[2800]: 00f2
sk[2801]: 009b
sk[2802]: 0095
sk[2803]: 00c8
sk[2804]: 0041
sk[2805]: 000d
sk[2806]: 00fa
sk[2807]: 0019
sk[2808]: 00bf
sk[2809]: 00e2
sk[2810]: 000d
sk[2811]: 00f8
sk[2812]: 00c7
sk[2813]: 0065
sk[2814]: 0069
sk[2815]: 0037
sk[2816]: 0035
sk[2817]: 00c0
sk[2818]: 00bc
sk[2819]: 0029
sk[2820]: 0091
sk[2821]: 00c5
sk[2822]: 0021
sk[2823]: 0021
sk[2824]: 0042
sk[2825]: 0090
sk[2826]: 00be
sk[2827]: 0033
sk[2828]: 0021
sk[2829]: 00db
sk[2830]: 0051
sk[2831]: 0070
sk[2832]: 0079
sk[2833]: 00a3
sk[2834]: 00b4
sk[2835]: 0035
sk[2836]: 0060
sk[2837]: 00b2
sk[2838]: 006e
sk[2839]: 00a0
sk[2840]: 0014
sk[2841]: 0002
sk[2842]: 00db
sk[2843]: 009c
sk[2844]: 004d
sk[2845]: 0085
sk[2846]: 006c
sk[2847]: 0096
sk[2848]: 0094
sk[2849]: 001f
sk[2850]: 0062
sk[2851]: 0011
sk[2852]: 006a
sk[2853]: 0082
sk[2854]: 0045
sk[2855]: 0056
sk[2856]: 00df
sk[2857]: 0024
sk[2858]: 00b9
sk[2859]: 00f9
sk[2860]: 0018
sk[2861]: 00b8
sk[2862]: 0091
sk[2863]: 0055
sk[2864]: 001f
sk[2865]: 002b
sk[2866]: 00a4
sk[2867]: 009a
sk[2868]: 0013
sk[2869]: 0018
sk[2870]: 00ae
sk[2871]: 00c6
sk[2872]: 0033
sk[2873]: 0048
sk[2874]: 0011
sk[2875]: 0063
sk[2876]: 00b5
sk[2877]: 00e3
sk[2878]: 00a3
sk[2879]: 0081
sk[2880]: 0064
sk[2881]: 0007
sk[2882]: 00c3
sk[2883]: 00b8
sk[2884]: 0089
sk[2885]: 0066
sk[2886]: 00c1
sk[2887]: 0006
sk[2888]: 00c1
sk[2889]: 00ca
sk[2890]: 0030
sk[2891]: 0008
sk[2892]: 00c9
sk[2893]: 0013
sk[2894]: 006f
sk[2895]: 00eb
sk[2896]: 00e7
sk[2897]: 009a
sk[2898]: 00bd
sk[2899]: 00f3
sk[2900]: 001e
sk[2901]: 0088
sk[2902]: 0023
sk[2903]: 00a8
sk[2904]: 0077
sk[2905]: 0001
sk[2906]: 0039
sk[2907]: 0020
sk[2908]: 00b4
sk[2909]: 007f
sk[2910]: 00aa
sk[2911]: 00d9
sk[2912]: 00b3
sk[2913]: 0062
sk[2914]: 0009
sk[2915]: 0083
sk[2916]: 0027
sk[2917]: 00a9
sk[2918]: 0087
sk[2919]: 003c
sk[2920]: 00e1
sk[2921]: 0050
sk[2922]: 00c0
sk[2923]: 00e8
sk[2924]: 0037
sk[2925]: 0079
sk[2926]: 003b
sk[2927]: 0078
sk[2928]: 0018
sk[2929]: 0036
sk[2930]: 0099
sk[2931]: 00d1
sk[2932]: 00c0
sk[2933]: 003b
sk[2934]: 009b
sk[2935]: 00ca
sk[2936]: 0093
sk[2937]: 00de
sk[2938]: 00a7
sk[2939]: 0087
sk[2940]: 0054
sk[2941]: 00a9
sk[2942]: 00b6
sk[2943]: 0092
sk[2944]: 00d4
sk[2945]: 003e
sk[2946]: 0072
sk[2947]: 0036
sk[2948]: 003b
sk[2949]: 001c
sk[2950]: 00a6
sk[2951]: 007b
sk[2952]: 006e
sk[2953]: 0045
sk[2954]: 003f
sk[2955]: 0028
sk[2956]: 0031
sk[2957]: 0062
sk[2958]: 0086
sk[2959]: 009a
sk[2960]: 0018
sk[2961]: 00ed
sk[2962]: 00a4
sk[2963]: 0036
sk[2964]: 0089
sk[2965]: 00b2
sk[2966]: 00a5
sk[2967]: 006d
sk[2968]: 0000
sk[2969]: 0027
sk[2970]: 00af
sk[2971]: 0036
sk[2972]: 0067
sk[2973]: 00b6
sk[2974]: 003c
sk[2975]: 0009
sk[2976]: 004c
sk[2977]: 0000
sk[2978]: 0099
sk[2979]: 00ec
sk[2980]: 00e9
sk[2981]: 002d
sk[2982]: 00d6
sk[2983]: 00a8
sk[2984]: 0090
sk[2985]: 0090
sk[2986]: 0092
sk[2987]: 003d
sk[2988]: 0067
sk[2989]: 0038
sk[2990]: 0043
sk[2991]: 0009
sk[2992]: 0051
sk[2993]: 006c
sk[2994]: 007a
sk[2995]: 0054
sk[2996]: 00cd
sk[2997]: 0031
sk[2998]: 0095
sk[2999]: 000f
sk[3000]: 00bc
sk[3001]: 00e2
sk[3002]: 00ca
sk[3003]: 00c8
sk[3004]: 00fa
sk[3005]: 008c
sk[3006]: 00b7
sk[3007]: 00a6
sk[3008]: 0061
sk[3009]: 005a
sk[3010]: 0035
sk[3011]: 00b6
sk[3012]: 008d
sk[3013]: 0075
sk[3014]: 007a
sk[3015]: 001f
sk[3016]: 00c8
sk[3017]: 000e
sk[3018]: 0070
sk[3019]: 0092
sk[3020]: 0038
sk[3021]: 0091
sk[3022]: 00a0
sk[3023]: 0023
sk[3024]: 00e9
sk[3025]: 0096
sk[3026]: 0097
sk[3027]: 00ca
sk[3028]: 00e3
sk[3029]: 00b4
sk[3030]: 00b5
sk[3031]: 00f3
sk[3032]: 0051
sk[3033]: 0099
sk[3034]: 00ba
sk[3035]: 0036
sk[3036]: 0044
sk[3037]: 0057
sk[3038]: 00ba
sk[3039]: 00ad
sk[3040]: 0094
sk[3041]: 00ad
sk[3042]: 0046
sk[3043]: 0004
sk[3044]: 00a7
sk[3045]: 0084
sk[3046]: 00c0
sk[3047]: 0097
sk[3048]: 000e
sk[3049]: 0084
sk[3050]: 003b
sk[3051]: 00cf
sk[3052]: 0083
sk[3053]: 0094
sk[3054]: 00cc
sk[3055]: 0099
sk[3056]: 0031
sk[3057]: 00ee
sk[3058]: 002c
sk[3059]: 00a3
sk[3060]: 005a
sk[3061]: 00f6
sk[3062]: 0004
sk[3063]: 00d8
sk[3064]: 00e2
sk[3065]: 0057
sk[3066]: 0001
sk[3067]: 0035
sk[3068]: 006e
sk[3069]: 007b
sk[3070]: 0095
sk[3071]: 0068
sk[3072]: 00b7
sk[3073]: 002f
sk[3074]: 009b
sk[3075]: 00c8
sk[3076]: 005c
sk[3077]: 000a
sk[3078]: 0013
sk[3079]: 00b9
sk[3080]: 00d0
sk[3081]: 0041
sk[3082]: 0058
sk[3083]: 006f
sk[3084]: 00d5
sk[3085]: 0083
sk[3086]: 00fe
sk[3087]: 00b1
sk[3088]: 002a
sk[3089]: 00fd
sk[3090]: 005a
sk[3091]: 0040
sk[3092]: 002d
sk[3093]: 00d3
sk[3094]: 003b
sk[3095]: 0043
sk[3096]: 0054
sk[3097]: 003f
sk[3098]: 005f
sk[3099]: 00a4
sk[3100]: 00eb
sk[3101]: 0043
sk[3102]: 006c
sk[3103]: 008d
sk[3104]: 00dd
sk[3105]: 0000
sk[3106]: 00bb
sk[3107]: 005f
sk[3108]: 0096
sk[3109]: 0062
sk[3110]: 0073
sk[3111]: 00b2
sk[3112]: 0002
sk[3113]: 0008
sk[3114]: 0083
sk[3115]: 00a7
sk[3116]: 00f4
sk[3117]: 0015
sk[3118]: 00b5
sk[3119]: 00c8
sk[3120]: 0031
sk[3121]: 00c3
sk[3122]: 005e
sk[3123]: 009d
sk[3124]: 0028
sk[3125]: 00f7
sk[3126]: 0023
sk[3127]: 00e4
sk[3128]: 00a4
sk[3129]: 0032
sk[3130]: 0088
sk[3131]: 00ef
sk[3132]: 002e
sk[3133]: 0018
sk[3134]: 0096
sk[3135]: 00d2
sk[3136]: 003e
sk[3137]: 002a
sk[3138]: 002e
sk[3139]: 00a6
sk[3140]: 00c9
sk[3141]: 00c4
sk[3142]: 0076
sk[3143]: 00fc
sk[3144]: 0049
sk[3145]: 0037
sk[3146]: 00b0
sk[3147]: 0013
sk[3148]: 00c9
sk[3149]: 0093
sk[3150]: 00a7
sk[3151]: 0093
sk[3152]: 00d6
sk[3153]: 00c0
sk[3154]: 00ab
sk[3155]: 0099
sk[3156]: 0060
sk[3157]: 0069
sk[3158]: 005b
sk[3159]: 00a8
sk[3160]: 0038
sk[3161]: 00f6
sk[3162]: 0049
sk[3163]: 00da
sk[3164]: 0053
sk[3165]: 009c
sk[3166]: 00a3
sk[3167]: 00d0
ct[0]: 000a
ct[1]: 001b
ct[2]: 001b
ct[3]: 0081
ct[4]: 0066
ct[5]: 0098
ct[6]: 0072
ct[7]: 00df
ct[8]: 0056
ct[9]: 0099
ct[10]: 00f4
ct[11]: 00c5
ct[12]: 00dc
ct[13]: 00ea
ct[14]: 0011
ct[15]: 00f2
ct[16]: 0062
ct[17]: 0057
ct[18]: 0040
ct[19]: 0008
ct[20]: 00e9
ct[21]: 0040
ct[22]: 00be
ct[23]: 00b8
ct[24]: 00c4
ct[25]: 000b
ct[26]: 005d
ct[27]: 007b
ct[28]: 00ac
ct[29]: 00f9
ct[30]: 006b
ct[31]: 00be
ct[32]: 0078
ct[33]: 0010
ct[34]: 00bd
ct[35]: 00b9
ct[36]: 0005
ct[37]: 000d
ct[38]: 009b
ct[39]: 00d4
ct[40]: 000a
ct[41]: 0002
ct[42]: 00c4
ct[43]: 0040
ct[44]: 0039
ct[45]: 00d4
ct[46]: 00f4
ct[47]: 0076
ct[48]: 0096
ct[49]: 0095
ct[50]: 007c
ct[51]: 00fd
ct[52]: 00c2
ct[53]: 007c
ct[54]: 00c5
ct[55]: 0032
ct[56]: 00c8
ct[57]: 00ac
ct[58]: 0085
ct[59]: 008f
ct[60]: 00ae
ct[61]: 0013
ct[62]: 0043
ct[63]: 000a
ct[64]: 006d
ct[65]: 0029
ct[66]: 00f1
ct[67]: 00f0
ct[68]: 0003
ct[69]: 0039
ct[70]: 0046
ct[71]: 00fc
ct[72]: 0088
ct[73]: 00d6
ct[74]: 006d
ct[75]: 009d
ct[76]: 00e8
ct[77]: 00b5
ct[78]: 0065
ct[79]: 00f3
ct[80]: 004a
ct[81]: 00fc
ct[82]: 000e
ct[83]: 005c
ct[84]: 00f3
ct[85]: 00b6
ct[86]: 0004
ct[87]: 001f
ct[88]: 00a6
ct[89]: 00c2
ct[90]: 0056
ct[91]: 005e
ct[92]: 00fe
ct[93]: 00b0
ct[94]: 003c
ct[95]: 003f
ct[96]: 0073
ct[97]: 00b2
ct[98]: 0056
ct[99]: 00ce
ct[100]: 00d4
ct[101]: 005f
ct[102]: 00c7
ct[103]: 00be
ct[104]: 0042
ct[105]: 0015
ct[106]: 0092
ct[107]: 00e3
ct[108]: 0049
ct[109]: 001b
ct[110]: 0071
ct[111]: 0064
ct[112]: 008b
ct[113]: 0059
ct[114]: 007d
ct[115]: 006d
ct[116]: 00f5
ct[117]: 00fc
ct[118]: 0071
ct[119]: 006b
ct[120]: 00da
ct[121]: 004c
ct[122]: 0054
ct[123]: 0002
ct[124]: 0035
ct[125]: 00da
ct[126]: 00ea
ct[127]: 0029
ct[128]: 004e
ct[129]: 00b6
ct[130]: 00d3
ct[131]: 00df
ct[132]: 00e5
ct[133]: 0025
ct[134]: 00a5
ct[135]: 008d
ct[136]: 0056
ct[137]: 0016
ct[138]: 0087
ct[139]: 00cb
ct[140]: 0006
ct[141]: 0086
ct[142]: 000a
ct[143]: 00cd
ct[144]: 0012
ct[145]: 0098
ct[146]: 00da
ct[147]: 0097
ct[148]: 0048
ct[149]: 00b1
ct[150]: 00e5
ct[151]: 0025
ct[152]: 00a5
ct[153]: 00f8
ct[154]: 009e
ct[155]: 0017
ct[156]: 0096
ct[157]: 009e
ct[158]: 0041
ct[159]: 0094
ct[160]: 0091
ct[161]: 0005
ct[162]: 00b3
ct[163]: 00ff
ct[164]: 00f9
ct[165]: 004d
ct[166]: 0015
ct[167]: 0036
ct[168]: 002a
ct[169]: 00f9
ct[170]: 00da
ct[171]: 003f
ct[172]: 00f9
ct[173]: 0084
ct[174]: 00c8
ct[175]: 008a
ct[176]: 0076
ct[177]: 008d
ct[178]: 0090
ct[179]: 0067
ct[180]: 00af
ct[181]: 0004
ct[182]: 0077
ct[183]: 0065
ct[184]: 0074
ct[185]: 0048
ct[186]: 0054
ct[187]: 00bd
ct[188]: 0090
ct[189]: 0030
ct[190]: 00fd
ct[191]: 00b5
ct[192]: 0058
ct[193]: 0042
ct[194]: 003e
ct[195]: 008b
ct[196]: 0017
ct[197]: 0075
ct[198]: 00a6
ct[199]: 0056
ct[200]: 0083
ct[201]: 0010
ct[202]: 0074
ct[203]: 0020
ct[204]: 0082
ct[205]: 008b
ct[206]: 0080
ct[207]: 009d
ct[208]: 00bc
ct[209]: 003f
ct[210]: 00ad
ct[211]: 00c5
ct[212]: 00ad
ct[213]: 0077
ct[214]: 00c6
ct[215]: 0004
ct[216]: 0033
ct[217]: 00cb
ct[218]: 0005
ct[219]: 001d
ct[220]: 008f
ct[221]: 00b9
ct[222]: 00d7
ct[223]: 000d
ct[224]: 00eb
ct[225]: 00b2
ct[226]: 00b3
ct[227]: 00d8
ct[228]: 0052
ct[229]: 0038
ct[230]: 00eb
ct[231]: 0098
ct[232]: 0092
ct[233]: 0015
ct[234]: 00aa
ct[235]: 0084
ct[236]: 0042
ct[237]: 005b
ct[238]: 00a1
ct[239]: 00e0
ct[240]: 0015
ct[241]: 00be
ct[242]: 0017
ct[243]: 0028
ct[244]: 0027
ct[245]: 00d8
ct[246]: 00eb
ct[247]: 001a
ct[248]: 00cf
ct[249]: 0087
ct[250]: 005c
ct[251]: 0023
ct[252]: 00b3
ct[253]: 00f7
ct[254]: 00d7
ct[255]: 0077
ct[256]: 0031
ct[257]: 005d
ct[258]: 0037
ct[259]: 005b
ct[260]: 009d
ct[261]: 00ca
ct[262]: 0003
ct[263]: 001f
ct[264]: 0051
ct[265]: 0080
ct[266]: 008a
ct[267]: 0052
ct[268]: 008e
ct[269]: 009b
ct[270]: 00d1
ct[271]: 00df
ct[272]: 00c0
ct[273]: 000f
ct[274]: 00e1
ct[275]: 007e
ct[276]: 00af
ct[277]: 009a
ct[278]: 00e6
ct[279]: 0035
ct[280]: 0021
ct[281]: 0019
ct[282]: 00cf
ct[283]: 0054
ct[284]: 006c
ct[285]: 006b
ct[286]: 003a
ct[287]: 007b
ct[288]: 00e6
ct[289]: 00a5
ct[290]: 008d
ct[291]: 006f
ct[292]: 0039
ct[293]: 0087
ct[294]: 005b
ct[295]: 0041
ct[296]: 0018
ct[297]: 004c
ct[298]: 00ee
ct[299]: 00a6
ct[300]: 00e5
ct[301]: 001d
ct[302]: 009d
ct[303]: 0026
ct[304]: 00c7
ct[305]: 0027
ct[306]: 001e
ct[307]: 0086
ct[308]: 0034
ct[309]: 006e
ct[310]: 008e
ct[311]: 005c
ct[312]: 00ce
ct[313]: 0099
ct[314]: 0095
ct[315]: 00dc
ct[316]: 00ab
ct[317]: 0048
ct[318]: 008a
ct[319]: 00c5
ct[320]: 00b3
ct[321]: 0054
ct[322]: 0026
ct[323]: 006a
ct[324]: 008b
ct[325]: 005d
ct[326]: 00bd
ct[327]: 003e
ct[328]: 0043
ct[329]: 0020
ct[330]: 00ac
ct[331]: 004d
ct[332]: 00af
ct[333]: 004c
ct[334]: 0032
ct[335]: 00da
ct[336]: 0049
ct[337]: 00e3
ct[338]: 006f
ct[339]: 00b6
ct[340]: 008c
ct[341]: 007b
ct[342]: 00d6
ct[343]: 0007
ct[344]: 0037
ct[345]: 0025
ct[346]: 00b3
ct[347]: 0025
ct[348]: 00a8
ct[349]: 00f6
ct[350]: 0064
ct[351]: 00e3
ct[352]: 004c
ct[353]: 0017
ct[354]: 0019
ct[355]: 0021
ct[356]: 00cc
ct[357]: 0088
ct[358]: 00ca
ct[359]: 0054
ct[360]: 00e6
ct[361]: 00b4
ct[362]: 00f3
ct[363]: 0028
ct[364]: 006a
ct[365]: 0090
ct[366]: 0044
ct[367]: 0026
ct[368]: 00f9
ct[369]: 0010
ct[370]: 009b
ct[371]: 001b
ct[372]: 0055
ct[373]: 003c
ct[374]: 003b
ct[375]: 0020
ct[376]: 004d
ct[377]: 0038
ct[378]: 008c
ct[379]: 00b1
ct[380]: 007e
ct[381]: 006f
ct[382]: 004e
ct[383]: 00bd
ct[384]: 0044
ct[385]: 0043
ct[386]: 0021
ct[387]: 00fa
ct[388]: 004b
ct[389]: 0066
ct[390]: 0060
ct[391]: 0074
ct[392]: 0041
ct[393]: 0030
ct[394]: 0019
ct[395]: 00c8
ct[396]: 000d
ct[397]: 008a
ct[398]: 002a
ct[399]: 004d
ct[400]: 00f1
ct[401]: 00f1
ct[402]: 0052
ct[403]: 004b
ct[404]: 00ba
ct[405]: 00b6
ct[406]: 004c
ct[407]: 0021
ct[408]: 0098
ct[409]: 0092
ct[410]: 008b
ct[411]: 009d
ct[412]: 00e2
ct[413]: 005b
ct[414]: 007e
ct[415]: 0051
ct[416]: 0056
ct[417]: 00ea
ct[418]: 009d
ct[419]: 00c5
ct[420]: 0039
ct[421]: 002f
ct[422]: 00d4
ct[423]: 0031
ct[424]: 00eb
ct[425]: 00e6
ct[426]: 00e9
ct[427]: 0009
ct[428]: 006a
ct[429]: 0063
ct[430]: 006f
ct[431]: 006b
ct[432]: 002f
ct[433]: 0080
ct[434]: 0022
ct[435]: 001f
ct[436]: 00e0
ct[437]: 00e0
ct[438]: 00e9
ct[439]: 0095
ct[440]: 00d0
ct[441]: 00ed
ct[442]: 0092
ct[443]: 00a2
ct[444]: 0066
ct[445]: 0056
ct[446]: 00ba
ct[447]: 0065
ct[448]: 0069
ct[449]: 0073
ct[450]: 0015
ct[451]: 0087
ct[452]: 0054
ct[453]: 0055
ct[454]: 004f
ct[455]: 0075
ct[456]: 0038
ct[457]: 00a6
ct[458]: 0075
ct[459]: 004d
ct[460]: 008a
ct[461]: 006d
ct[462]: 00a6
ct[463]: 002a
ct[464]: 009c
ct[465]: 007a
ct[466]: 0010
ct[467]: 0050
ct[468]: 0045
ct[469]: 0017
ct[470]: 001e
ct[471]: 0092
ct[472]: 00e5
ct[473]: 0099
ct[474]: 0010
ct[475]: 005b
ct[476]: 00c2
ct[477]: 00e6
ct[478]: 00a2
ct[479]: 0088
ct[480]: 0076
ct[481]: 00c6
ct[482]: 0042
ct[483]: 0002
ct[484]: 00ee
ct[485]: 0089
ct[486]: 0008
ct[487]: 00ea
ct[488]: 005a
ct[489]: 0074
ct[490]: 00a3
ct[491]: 002a
ct[492]: 00f5
ct[493]: 002c
ct[494]: 009c
ct[495]: 00cf
ct[496]: 00e7
ct[497]: 00a0
ct[498]: 00f7
ct[499]: 00e8
ct[500]: 0014
ct[501]: 001e
ct[502]: 00a3
ct[503]: 009e
ct[504]: 0091
ct[505]: 0045
ct[506]: 00a5
ct[507]: 00df
ct[508]: 0081
ct[509]: 00f2
ct[510]: 0055
ct[511]: 00c3
ct[512]: 00e0
ct[513]: 00ef
ct[514]: 00cb
ct[515]: 008c
ct[516]: 00e4
ct[517]: 001e
ct[518]: 00f1
ct[519]: 00ae
ct[520]: 0080
ct[521]: 0027
ct[522]: 0016
ct[523]: 00e6
ct[524]: 005e
ct[525]: 00e0
ct[526]: 00d3
ct[527]: 00c5
ct[528]: 004b
ct[529]: 006e
ct[530]: 0020
ct[531]: 00d6
ct[532]: 001c
ct[533]: 005b
ct[534]: 0059
ct[535]: 0026
ct[536]: 00cb
ct[537]: 00cb
ct[538]: 0008
ct[539]: 00d2
ct[540]: 00a0
ct[541]: 00b0
ct[542]: 0033
ct[543]: 0051
ct[544]: 000d
ct[545]: 0032
ct[546]: 00aa
ct[547]: 0018
ct[548]: 001c
ct[549]: 0073
ct[550]: 00a6
ct[551]: 0004
ct[552]: 00e2
ct[553]: 009a
ct[554]: 0098
ct[555]: 0003
ct[556]: 00ed
ct[557]: 00aa
ct[558]: 002d
ct[559]: 0016
ct[560]: 00bb
ct[561]: 0050
ct[562]: 00e9
ct[563]: 009e
ct[564]: 00c8
ct[565]: 0044
ct[566]: 006b
ct[567]: 0088
ct[568]: 00a6
ct[569]: 000c
ct[570]: 009b
ct[571]: 00d8
ct[572]: 00bb
ct[573]: 0078
ct[574]: 00c5
ct[575]: 00ca
ct[576]: 00c2
ct[577]: 00d8
ct[578]: 00bf
ct[579]: 00ca
ct[580]: 009e
ct[581]: 0083
ct[582]: 0012
ct[583]: 0014
ct[584]: 00a6
ct[585]: 0000
ct[586]: 0099
ct[587]: 0091
ct[588]: 0025
ct[589]: 00ec
ct[590]: 00cf
ct[591]: 006a
ct[592]: 005a
ct[593]: 000a
ct[594]: 003e
ct[595]: 000d
ct[596]: 00c5
ct[597]: 007f
ct[598]: 009f
ct[599]: 0056
ct[600]: 00a9
ct[601]: 00c0
ct[602]: 00b6
ct[603]: 0064
ct[604]: 00fc
ct[605]: 002c
ct[606]: 0041
ct[607]: 00c8
ct[608]: 0042
ct[609]: 0005
ct[610]: 0023
ct[611]: 0088
ct[612]: 00f3
ct[613]: 00ab
ct[614]: 00f8
ct[615]: 0014
ct[616]: 0056
ct[617]: 006c
ct[618]: 00d1
ct[619]: 00df
ct[620]: 006f
ct[621]: 00f6
ct[622]: 0011
ct[623]: 0024
ct[624]: 0055
ct[625]: 00ac
ct[626]: 0025
ct[627]: 00e8
ct[628]: 0023
ct[629]: 006e
ct[630]: 00e0
ct[631]: 0069
ct[632]: 0055
ct[633]: 0064
ct[634]: 0072
ct[635]: 0073
ct[636]: 00f9
ct[637]: 0005
ct[638]: 0026
ct[639]: 0091
ct[640]: 0059
ct[641]: 001d
ct[642]: 0021
ct[643]: 00e1
ct[644]: 00fb
ct[645]: 0058
ct[646]: 0066
ct[647]: 0073
ct[648]: 00db
ct[649]: 0012
ct[650]: 0011
ct[651]: 00a2
ct[652]: 0073
ct[653]: 00c2
ct[654]: 003f
ct[655]: 00ab
ct[656]: 00e3
ct[657]: 00c2
ct[658]: 00ad
ct[659]: 0029
ct[660]: 001e
ct[661]: 002e
ct[662]: 009a
ct[663]: 0052
ct[664]: 00a3
ct[665]: 0031
ct[666]: 0037
ct[667]: 0040
ct[668]: 0084
ct[669]: 0097
ct[670]: 0019
ct[671]: 00ac
ct[672]: 00fc
ct[673]: 007e
ct[674]: 0077
ct[675]: 0082
ct[676]: 001e
ct[677]: 005e
ct[678]: 006e
ct[679]: 00eb
ct[680]: 00c2
ct[681]: 0021
ct[682]: 00a8
ct[683]: 0096
ct[684]: 0078
ct[685]: 0057
ct[686]: 0020
ct[687]: 0019
ct[688]: 00e2
ct[689]: 0024
ct[690]: 0007
ct[691]: 0025
ct[692]: 000d
ct[693]: 002b
ct[694]: 0050
ct[695]: 0007
ct[696]: 0019
ct[697]: 00c1
ct[698]: 006c
ct[699]: 0076
ct[700]: 006e
ct[701]: 0055
ct[702]: 0052
ct[703]: 00f8
ct[704]: 00b6
ct[705]: 0004
ct[706]: 003a
ct[707]: 00ea
ct[708]: 00f6
ct[709]: 001a
ct[710]: 0050
ct[711]: 0055
ct[712]: 00e8
ct[713]: 009c
ct[714]: 0080
ct[715]: 0033
ct[716]: 00f0
ct[717]: 00d0
ct[718]: 0032
ct[719]: 0046
ct[720]: 008b
ct[721]: 0053
ct[722]: 00bf
ct[723]: 003e
ct[724]: 0009
ct[725]: 0036
ct[726]: 00a9
ct[727]: 00e2
ct[728]: 007d
ct[729]: 00d7
ct[730]: 0068
ct[731]: 009b
ct[732]: 0068
ct[733]: 008e
ct[734]: 00b5
ct[735]: 003d
ct[736]: 0055
ct[737]: 001d
ct[738]: 00fa
ct[739]: 00c2
ct[740]: 00e9
ct[741]: 00a7
ct[742]: 0001
ct[743]: 0024
ct[744]: 000f
ct[745]: 00db
ct[746]: 009c
ct[747]: 003a
ct[748]: 00ee
ct[749]: 0062
ct[750]: 007b
ct[751]: 0049
ct[752]: 0080
ct[753]: 0076
ct[754]: 0090
ct[755]: 0085
ct[756]: 009a
ct[757]: 0084
ct[758]: 0041
ct[759]: 0033
ct[760]: 002d
ct[761]: 002f
ct[762]: 0035
ct[763]: 0096
ct[764]: 0048
ct[765]: 0091
ct[766]: 005b
ct[767]: 0030
ct[768]: 0036
ct[769]: 00de
ct[770]: 0022
ct[771]: 003f
ct[772]: 00ae
ct[773]: 0009
ct[774]: 00db
ct[775]: 00a6
ct[776]: 0041
ct[777]: 00b5
ct[778]: 0024
ct[779]: 0072
ct[780]: 0084
ct[781]: 000d
ct[782]: 0033
ct[783]: 00bf
ct[784]: 005a
ct[785]: 0083
ct[786]: 008f
ct[787]: 005b
ct[788]: 002f
ct[789]: 000a
ct[790]: 0088
ct[791]: 002d
ct[792]: 003e
ct[793]: 00de
ct[794]: 00a5
ct[795]: 0019
ct[796]: 0020
ct[797]: 0094
ct[798]: 0052
ct[799]: 00fb
ct[800]: 0047
ct[801]: 002c
ct[802]: 00ea
ct[803]: 00d5
ct[804]: 0071
ct[805]: 0072
ct[806]: 0009
ct[807]: 00a7
ct[808]: 0092
ct[809]: 00de
ct[810]: 00ad
ct[811]: 002a
ct[812]: 00be
ct[813]: 00a7
ct[814]: 00fa
ct[815]: 0072
ct[816]: 0022
ct[817]: 001e
ct[818]: 00ad
ct[819]: 00b4
ct[820]: 0054
ct[821]: 0038
ct[822]: 00bd
ct[823]: 0051
ct[824]: 00a0
ct[825]: 00c9
ct[826]: 0057
ct[827]: 00f3
ct[828]: 0099
ct[829]: 0088
ct[830]: 00c7
ct[831]: 0020
ct[832]: 0087
ct[833]: 00bb
ct[834]: 003d
ct[835]: 00c5
ct[836]: 007f
ct[837]: 00b2
ct[838]: 00e4
ct[839]: 0040
ct[840]: 00fe
ct[841]: 005c
ct[842]: 00a0
ct[843]: 0091
ct[844]: 0029
ct[845]: 0088
ct[846]: 00d9
ct[847]: 0063
ct[848]: 0033
ct[849]: 00eb
ct[850]: 00be
ct[851]: 00fe
ct[852]: 00ab
ct[853]: 0015
ct[854]: 001e
ct[855]: 0047
ct[856]: 0045
ct[857]: 006e
ct[858]: 00ec
ct[859]: 0024
ct[860]: 00c3
ct[861]: 00bc
ct[862]: 0003
ct[863]: 0051
ct[864]: 005c
ct[865]: 0064
ct[866]: 0028
ct[867]: 000b
ct[868]: 0047
ct[869]: 00fc
ct[870]: 0077
ct[871]: 0073
ct[872]: 00a7
ct[873]: 0074
ct[874]: 001d
ct[875]: 00ea
ct[876]: 007c
ct[877]: 00ba
ct[878]: 00ed
ct[879]: 00e5
ct[880]: 006b
ct[881]: 00eb
ct[882]: 005c
ct[883]: 0033
ct[884]: 009b
ct[885]: 0027
ct[886]: 00c7
ct[887]: 0081
ct[888]: 007a
ct[889]: 00a7
ct[890]: 0028
ct[891]: 00ad
ct[892]: 0075
ct[893]: 0071
ct[894]: 0068
ct[895]: 008a
ct[896]: 0011
ct[897]: 00df
ct[898]: 00c7
ct[899]: 00a2
ct[900]: 00a1
ct[901]: 0024
ct[902]: 00f0
ct[903]: 0027
ct[904]: 00bb
ct[905]: 0065
ct[906]: 0094
ct[907]: 0071
ct[908]: 00e7
ct[909]: 0014
ct[910]: 004e
ct[911]: 00ff
ct[912]: 0039
ct[913]: 0045
ct[914]: 00fb
ct[915]: 0088
ct[916]: 00ad
ct[917]: 0059
ct[918]: 0072
ct[919]: 0083
ct[920]: 00b5
ct[921]: 00c7
ct[922]: 00c1
ct[923]: 00e5
ct[924]: 00e4
ct[925]: 00db
ct[926]: 00c9
ct[927]: 007a
ct[928]: 0083
ct[929]: 0041
ct[930]: 005b
ct[931]: 00df
ct[932]: 0041
ct[933]: 00eb
ct[934]: 00ed
ct[935]: 0001
ct[936]: 006f
ct[937]: 00a8
ct[938]: 0067
ct[939]: 00da
ct[940]: 0050
ct[941]: 0002
ct[942]: 0044
ct[943]: 00cc
ct[944]: 0034
ct[945]: 00bc
ct[946]: 00cc
ct[947]: 00ea
ct[948]: 000d
ct[949]: 006b
ct[950]: 00d5
ct[951]: 00d3
ct[952]: 00c7
ct[953]: 0096
ct[954]: 00c0
ct[955]: 0088
ct[956]: 008d
ct[957]: 0049
ct[958]: 0029
ct[959]: 0029
ct[960]: 0009
ct[961]: 006c
ct[962]: 008d
ct[963]: 009e
ct[964]: 0020
ct[965]: 0027
ct[966]: 00cb
ct[967]: 0009
ct[968]: 0020
ct[969]: 0095
ct[970]: 0060
ct[971]: 00be
ct[972]: 00e1
ct[973]: 00e3
ct[974]: 0007
ct[975]: 00c7
ct[976]: 00fc
ct[977]: 0031
ct[978]: 007c
ct[979]: 0061
ct[980]: 00bb
ct[981]: 00c1
ct[982]: 000d
ct[983]: 0044
ct[984]: 004e
ct[985]: 00de
ct[986]: 0068
ct[987]: 007f
ct[988]: 0040
ct[989]: 00b8
ct[990]: 0020
ct[991]: 0018
ct[992]: 007a
ct[993]: 0053
ct[994]: 002f
ct[995]: 00f0
ct[996]: 0012
ct[997]: 0067
ct[998]: 00a3
ct[999]: 002f
ct[1000]: 00ce
ct[1001]: 00ec
ct[1002]: 000d
ct[1003]: 00f8
ct[1004]: 00fc
ct[1005]: 0041
ct[1006]: 0009
ct[1007]: 001a
ct[1008]: 0060
ct[1009]: 003a
ct[1010]: 00d7
ct[1011]: 0064
ct[1012]: 00e2
ct[1013]: 00d2
ct[1014]: 0055
ct[1015]: 0046
ct[1016]: 0004
ct[1017]: 0001
ct[1018]: 004f
ct[1019]: 00a1
ct[1020]: 0008
ct[1021]: 00dd
ct[1022]: 0020
ct[1023]: 0071
ct[1024]: 0074
ct[1025]: 00f6
ct[1026]: 00ce
ct[1027]: 006a
ct[1028]: 0001
ct[1029]: 0018
ct[1030]: 007b
ct[1031]: 006e
ct[1032]: 002b
ct[1033]: 0023
ct[1034]: 0003
ct[1035]: 00c9
ct[1036]: 00a1
ct[1037]: 0011
ct[1038]: 0025
ct[1039]: 00df
ct[1040]: 0080
ct[1041]: 005f
ct[1042]: 0036
ct[1043]: 0005
ct[1044]: 0074
ct[1045]: 0037
ct[1046]: 0087
ct[1047]: 0080
ct[1048]: 0013
ct[1049]: 00c3
ct[1050]: 00af
ct[1051]: 004a
ct[1052]: 0076
ct[1053]: 009d
ct[1054]: 008a
ct[1055]: 007b
ct[1056]: 0009
ct[1057]: 0094
ct[1058]: 008b
ct[1059]: 00a7
ct[1060]: 00ca
ct[1061]: 006a
ct[1062]: 00bf
ct[1063]: 000d
ct[1064]: 001b
ct[1065]: 008b
ct[1066]: 00a1
ct[1067]: 0092
ct[1068]: 0032
ct[1069]: 0087
ct[1070]: 007d
ct[1071]: 0002
ct[1072]: 001f
ct[1073]: 0074
ct[1074]: 007c
ct[1075]: 0009
ct[1076]: 0027
ct[1077]: 00c2
ct[1078]: 0015
ct[1079]: 006d
ct[1080]: 00db
ct[1081]: 005e
ct[1082]: 0089
ct[1083]: 002f
ct[1084]: 006d
ct[1085]: 00ba
ct[1086]: 00f1
ct[1087]: 0055
ct[1088]: 0028
ct[1089]: 0051
ct[1090]: 0068
ct[1091]: 001b
ct[1092]: 0093
ct[1093]: 00ec
ct[1094]: 00ec
ct[1095]: 00c3
ct[1096]: 0029
ct[1097]: 007f
ct[1098]: 0087
ct[1099]: 00b6
ct[1100]: 002c
ct[1101]: 0027
ct[1102]: 004c
ct[1103]: 00a9
ct[1104]: 00d0
ct[1105]: 0011
ct[1106]: 006a
ct[1107]: 00b2
ct[1108]: 00ee
ct[1109]: 00dc
ct[1110]: 0078
ct[1111]: 0072
ct[1112]: 0028
ct[1113]: 00c5
ct[1114]: 00e8
ct[1115]: 009b
ct[1116]: 00b3
ct[1117]: 00c3
ct[1118]: 0054
ct[1119]: 0036
ct[1120]: 0053
ct[1121]: 00f4
ct[1122]: 00e9
ct[1123]: 00a7
ct[1124]: 0071
ct[1125]: 000c
ct[1126]: 004a
ct[1127]: 0066
ct[1128]: 0087
ct[1129]: 004d
ct[1130]: 00b2
ct[1131]: 0063
ct[1132]: 0062
ct[1133]: 0072
ct[1134]: 006c
ct[1135]: 00a0
ct[1136]: 00d6
ct[1137]: 00fa
ct[1138]: 0029
ct[1139]: 00b8
ct[1140]: 0055
ct[1141]: 009f
ct[1142]: 00cb
ct[1143]: 00fc
ct[1144]: 00d2
ct[1145]: 00bb
ct[1146]: 00b3
ct[1147]: 0010
ct[1148]: 0027
ct[1149]: 006e
ct[1150]: 0070
ct[1151]: 00c4
ct[1152]: 0097
ct[1153]: 00bc
ct[1154]: 009c
ct[1155]: 0043
ct[1156]: 0005
ct[1157]: 0014
ct[1158]: 001d
ct[1159]: 0092
ct[1160]: 009f
ct[1161]: 00f2
ct[1162]: 006e
ct[1163]: 00a7
ct[1164]: 00ff
ct[1165]: 002a
ct[1166]: 00e3
ct[1167]: 001f
ct[1168]: 0065
ct[1169]: 00b2
ct[1170]: 0031
ct[1171]: 0083
ct[1172]: 0037
ct[1173]: 0047
ct[1174]: 004f
ct[1175]: 004d
ct[1176]: 0011
ct[1177]: 0008
ct[1178]: 0015
ct[1179]: 00bd
ct[1180]: 0082
ct[1181]: 0069
ct[1182]: 0054
ct[1183]: 006b
ct[1184]: 003d
ct[1185]: 00a8
ct[1186]: 008c
ct[1187]: 0064
ct[1188]: 006b
ct[1189]: 0073
ct[1190]: 005d
ct[1191]: 00d4
ct[1192]: 00d6
ct[1193]: 0087
ct[1194]: 002f
ct[1195]: 0036
ct[1196]: 0002
ct[1197]: 0055
ct[1198]: 003b
ct[1199]: 00e1
ct[1200]: 0044
ct[1201]: 0054
ct[1202]: 007d
ct[1203]: 0067
ct[1204]: 0059
ct[1205]: 00ce
ct[1206]: 0025
ct[1207]: 0053
ct[1208]: 00f5
ct[1209]: 0073
ct[1210]: 006b
ct[1211]: 00f6
ct[1212]: 007c
ct[1213]: 00f8
ct[1214]: 00cd
ct[1215]: 00d8
ct[1216]: 00af
ct[1217]: 00ab
ct[1218]: 009c
ct[1219]: 001f
ct[1220]: 0054
ct[1221]: 0069
ct[1222]: 0023
ct[1223]: 006b
ct[1224]: 0000
ct[1225]: 0036
ct[1226]: 0024
ct[1227]: 0093
ct[1228]: 00a3
ct[1229]: 007b
ct[1230]: 0091
ct[1231]: 00f9
ct[1232]: 0073
ct[1233]: 00bc
ct[1234]: 0003
ct[1235]: 00d2
ct[1236]: 00c3
ct[1237]: 00bf
ct[1238]: 00d9
ct[1239]: 0027
ct[1240]: 003d
ct[1241]: 00d3
ct[1242]: 00f5
ct[1243]: 002b
ct[1244]: 00b9
ct[1245]: 008b
ct[1246]: 0095
ct[1247]: 00b3
ct[1248]: 0069
ct[1249]: 0072
ct[1250]: 0009
ct[1251]: 007d
ct[1252]: 005a
ct[1253]: 0017
ct[1254]: 0049
ct[1255]: 00b5
ct[1256]: 00e0
ct[1257]: 0041
ct[1258]: 006e
ct[1259]: 0063
ct[1260]: 002e
ct[1261]: 0057
ct[1262]: 00cc
ct[1263]: 002f
ct[1264]: 00a8
ct[1265]: 0019
ct[1266]: 0023
ct[1267]: 0011
ct[1268]: 00cd
ct[1269]: 00e5
ct[1270]: 00a2
ct[1271]: 00d6
ct[1272]: 0061
ct[1273]: 00fd
ct[1274]: 001e
ct[1275]: 0012
ct[1276]: 00a2
ct[1277]: 00e3
ct[1278]: 00a1
ct[1279]: 00e6
ct[1280]: 0010
ct[1281]: 007a
ct[1282]: 0012
ct[1283]: 000d
ct[1284]: 00b3
ct[1285]: 00de
ct[1286]: 008f
ct[1287]: 00d5
ct[1288]: 00fd
ct[1289]: 0089
ct[1290]: 0058
ct[1291]: 0002
ct[1292]: 00bb
ct[1293]: 00dd
ct[1294]: 0012
ct[1295]: 001a
ct[1296]: 002f
ct[1297]: 0028
ct[1298]: 00d8
ct[1299]: 0096
ct[1300]: 00e0
ct[1301]: 00cf
ct[1302]: 00a3
ct[1303]: 00a7
ct[1304]: 0037
ct[1305]: 007c
ct[1306]: 004b
ct[1307]: 0002
ct[1308]: 00c4
ct[1309]: 00e2
ct[1310]: 00b3
ct[1311]: 00d7
ct[1312]: 0003
ct[1313]: 0097
ct[1314]: 0053
ct[1315]: 00f8
ct[1316]: 00de
ct[1317]: 0032
ct[1318]: 00fd
ct[1319]: 0054
ct[1320]: 00a1
ct[1321]: 0010
ct[1322]: 009a
ct[1323]: 0077
ct[1324]: 0078
ct[1325]: 00ae
ct[1326]: 0025
ct[1327]: 00e4
ct[1328]: 0084
ct[1329]: 0040
ct[1330]: 0061
ct[1331]: 00c7
ct[1332]: 00ac
ct[1333]: 0042
ct[1334]: 0058
ct[1335]: 00db
ct[1336]: 00ca
ct[1337]: 00b3
ct[1338]: 0060
ct[1339]: 00e8
ct[1340]: 00a3
ct[1341]: 0043
ct[1342]: 00eb
ct[1343]: 001a
ct[1344]: 0073
ct[1345]: 00fd
ct[1346]: 0022
ct[1347]: 00ec
ct[1348]: 005e
ct[1349]: 0038
ct[1350]: 003e
ct[1351]: 0004
ct[1352]: 0075
ct[1353]: 0031
ct[1354]: 0046
ct[1355]: 0097
ct[1356]: 001c
ct[1357]: 005d
ct[1358]: 00ee
ct[1359]: 0044
ct[1360]: 0052
ct[1361]: 00cb
ct[1362]: 004d
ct[1363]: 0005
ct[1364]: 00e5
ct[1365]: 005f
ct[1366]: 0076
ct[1367]: 0024
ct[1368]: 00ff
ct[1369]: 006a
ct[1370]: 003e
ct[1371]: 00f3
ct[1372]: 00b7
ct[1373]: 004e
ct[1374]: 00ac
ct[1375]: 00ce
ct[1376]: 00bd
ct[1377]: 002e
ct[1378]: 00de
ct[1379]: 00e7
ct[1380]: 007b
ct[1381]: 0044
ct[1382]: 00d3
ct[1383]: 00e0
ct[1384]: 0009
ct[1385]: 0008
ct[1386]: 008a
ct[1387]: 0073
ct[1388]: 007d
ct[1389]: 00bc
ct[1390]: 005b
ct[1391]: 0097
ct[1392]: 0085
ct[1393]: 0073
ct[1394]: 0011
ct[1395]: 003d
ct[1396]: 0001
ct[1397]: 009f
ct[1398]: 000b
ct[1399]: 00da
ct[1400]: 00f7
ct[1401]: 00e7
ct[1402]: 00d4
ct[1403]: 0024
ct[1404]: 0006
ct[1405]: 006e
ct[1406]: 0070
ct[1407]: 00a5
ct[1408]: 0005
ct[1409]: 00ec
ct[1410]: 0043
ct[1411]: 0087
ct[1412]: 00ff
ct[1413]: 003f
ct[1414]: 002c
ct[1415]: 00f0
ct[1416]: 0038
ct[1417]: 001b
ct[1418]: 0001
ct[1419]: 0016
ct[1420]: 000f
ct[1421]: 00f6
ct[1422]: 00d9
ct[1423]: 004f
ct[1424]: 0051
ct[1425]: 0006
ct[1426]: 00d4
ct[1427]: 0021
ct[1428]: 004e
ct[1429]: 0019
ct[1430]: 0022
ct[1431]: 0013
ct[1432]: 0001
ct[1433]: 00d3
ct[1434]: 008d
ct[1435]: 0028
ct[1436]: 00ba
ct[1437]: 0069
ct[1438]: 0027
ct[1439]: 001f
ct[1440]: 0072
ct[1441]: 0062
ct[1442]: 0018
ct[1443]: 00f9
ct[1444]: 0041
ct[1445]: 003d
ct[1446]: 0062
ct[1447]: 0043
ct[1448]: 002e
ct[1449]: 000c
ct[1450]: 0042
ct[1451]: 008d
ct[1452]: 0037
ct[1453]: 0056
ct[1454]: 00ea
ct[1455]: 008b
ct[1456]: 0003
ct[1457]: 0064
ct[1458]: 00e9
ct[1459]: 0017
ct[1460]: 00c5
ct[1461]: 0069
ct[1462]: 0020
ct[1463]: 0055
ct[1464]: 0068
ct[1465]: 00bd
ct[1466]: 0068
ct[1467]: 0009
ct[1468]: 00fa
ct[1469]: 009c
ct[1470]: 00a7
ct[1471]: 00a5
ct[1472]: 0034
ct[1473]: 00a8
ct[1474]: 00ae
ct[1475]: 005e
ct[1476]: 003e
ct[1477]: 00b2
ct[1478]: 0007
ct[1479]: 0046
ct[1480]: 001d
ct[1481]: 00aa
ct[1482]: 00fa
ct[1483]: 005d
ct[1484]: 001e
ct[1485]: 0041
ct[1486]: 0049
ct[1487]: 000f
ct[1488]: 0044
ct[1489]: 0043
ct[1490]: 0001
ct[1491]: 0086
ct[1492]: 0006
ct[1493]: 007b
ct[1494]: 00d5
ct[1495]: 00ec
ct[1496]: 009e
ct[1497]: 00b8
ct[1498]: 00bd
ct[1499]: 00e5
ct[1500]: 00aa
ct[1501]: 0064
ct[1502]: 009d
ct[1503]: 008e
ct[1504]: 00b9
ct[1505]: 008a
ct[1506]: 0025
ct[1507]: 0079
ct[1508]: 00a4
ct[1509]: 0026
ct[1510]: 0010
ct[1511]: 0063
ct[1512]: 0095
ct[1513]: 00f6
ct[1514]: 00aa
ct[1515]: 0019
ct[1516]: 00df
ct[1517]: 0055
ct[1518]: 00ae
ct[1519]: 0024
ct[1520]: 00ba
ct[1521]: 0071
ct[1522]: 0084
ct[1523]: 008b
ct[1524]: 0043
ct[1525]: 0028
ct[1526]: 00ee
ct[1527]: 00f8
ct[1528]: 00e5
ct[1529]: 0057
ct[1530]: 00bf
ct[1531]: 0078
ct[1532]: 0015
ct[1533]: 00ac
ct[1534]: 00c6
ct[1535]: 0099
ct[1536]: 005a
ct[1537]: 0062
ct[1538]: 00ea
ct[1539]: 0036
ct[1540]: 00b2
ct[1541]: 00d1
ct[1542]: 00ef
ct[1543]: 001a
ct[1544]: 00e9
ct[1545]: 0093
ct[1546]: 003d
ct[1547]: 00f3
ct[1548]: 00d8
ct[1549]: 0025
ct[1550]: 007c
ct[1551]: 0049
ct[1552]: 006c
ct[1553]: 00c3
ct[1554]: 00d2
ct[1555]: 0083
ct[1556]: 0006
ct[1557]: 0057
ct[1558]: 0079
ct[1559]: 00ff
ct[1560]: 0045
ct[1561]: 00b1
ct[1562]: 008d
ct[1563]: 0029
ct[1564]: 00fa
ct[1565]: 0096
ct[1566]: 000e
ct[1567]: 00ed
ss[0]: 00fc
ss[1]: 000c
ss[2]: 00d6
ss[3]: 00d3
ss[4]: 00af
ss[5]: 00d1
ss[6]: 004c
ss[7]: 0059
ss[8]: 0048
ss[9]: 00be
ss[10]: 005c
ss[11]: 00d4
ss[12]: 0043
ss[13]: 00a7
ss[14]: 00ea
ss[15]: 003e
ss[16]: 00c4
ss[17]: 004c
ss[18]: 005e
ss[19]: 0022
ss[20]: 00af
ss[21]: 00ee
ss[22]: 0067
ss[23]: 000b
ss[24]: 0031
ss[25]: 00e7
ss[26]: 00cc
ss[27]: 0049
ss[28]: 001a
ss[29]: 00d1
ss[30]: 0079
ss[31]: 0059
ss1[0]: 00fc
ss1[1]: 000c
ss1[2]: 00d6
ss1[3]: 00d3
ss1[4]: 00af
ss1[5]: 00d1
ss1[6]: 004c
ss1[7]: 0059
ss1[8]: 0048
ss1[9]: 00be
ss1[10]: 005c
ss1[11]: 00d4
ss1[12]: 0043
ss1[13]: 00a7
ss1[14]: 00ea
ss1[15]: 003e
ss1[16]: 00c4
ss1[17]: 004c
ss1[18]: 005e
ss1[19]: 0022
ss1[20]: 00af
ss1[21]: 00ee
ss1[22]: 0067
ss1[23]: 000b
ss1[24]: 0031
ss1[25]: 00e7
ss1[26]: 00cc
ss1[27]: 0049
ss1[28]: 001a
ss1[29]: 00d1
ss1[30]: 0079
ss1[31]: 0059

